event_type scenario year n_sims january february march april may june july august september october november december
hot ALL 1982 50 0 0 0 0 0 0 0 0 15 1 0 0
hot ALL 1983 50 0 0 0 0 0 0 0 0 24 1 0 0
hot ALL 1984 50 0 0 0 0 0 0 0 0 5 0 0 0
hot ALL 1985 50 0 0 0 0 0 0 0 0 5 0 0 0
hot ALL 1986 50 0 0 0 0 0 0 0 0 2 0 0 0
hot ALL 1987 50 0 0 0 0 0 0 0 0 41 20 0 0
hot ALL 1988 50 0 0 0 0 0 0 0 0 32 0 0 0
hot ALL 1989 50 0 0 0 0 0 0 0 0 6 0 0 0
hot ALL 1990 50 0 0 0 0 0 0 0 0 16 2 0 0
hot ALL 1991 50 0 0 0 0 0 0 0 0 26 8 0 0
hot ALL 1992 50 0 0 0 0 0 0 0 0 20 2 0 0
hot ALL 1993 50 0 0 0 0 0 0 0 0 19 3 0 0
hot ALL 1994 50 0 0 0 0 0 0 0 0 29 12 0 0
hot ALL 1995 50 0 0 0 0 0 0 0 0 40 10 0 0
hot ALL 1996 50 0 0 0 0 0 0 0 0 16 2 0 0
hot ALL 1997 100 0 0 0 0 0 0 0 2 69 37 4 0
hot ALL 1998 100 0 0 0 0 0 0 0 0 85 24 0 0
hot ALL 1999 100 0 0 0 0 0 0 0 0 61 7 0 0
hot ALL 2000 100 0 0 0 0 0 0 0 0 55 9 0 0
hot ALL 2001 100 0 0 0 0 0 0 0 0 84 16 0 0
hot ALL 2002 100 0 0 0 0 0 0 0 2 61 25 1 0
hot ALL 2003 100 0 0 0 0 0 0 0 1 88 37 0 0
hot ALL 2004 100 0 0 0 0 0 0 0 0 81 55 4 0
hot ALL 2005 100 0 0 0 0 0 0 0 1 84 41 0 0
hot ALL 2006 100 0 0 0 0 0 0 0 0 80 60 0 0
hot ALL 2007 100 0 0 0 0 0 0 0 0 86 37 0 0
hot ALL 2008 100 0 0 0 0 0 0 0 0 88 47 0 0
hot ALL 2009 100 0 0 0 0 0 0 0 0 71 37 4 0
hot ALL 2010 100 0 0 0 0 0 0 0 1 95 29 0 0
hot ALL 2011 400 0 0 0 0 0 0 0 0 229 85 0 0
hot ALL 2012 400 0 0 0 0 0 0 0 2 383 274 22 0
hot ALL 2013 400 0 0 0 0 0 0 0 3 361 137 0 0
hot NAT 1982 50 0 0 0 0 0 0 0 0 2 0 0 0
hot NAT 1983 50 0 0 0 0 0 0 0 0 3 0 0 0
hot NAT 1984 50 0 0 0 0 0 0 0 0 0 0 0 0
hot NAT 1985 50 0 0 0 0 0 0 0 0 0 0 0 0
hot NAT 1986 50 0 0 0 0 0 0 0 0 0 0 0 0
hot NAT 1987 50 0 0 0 0 0 0 0 0 21 4 0 0
hot NAT 1988 50 0 0 0 0 0 0 0 0 2 0 0 0
hot NAT 1989 50 0 0 0 0 0 0 0 0 0 0 0 0
hot NAT 1990 50 0 0 0 0 0 0 0 0 1 0 0 0
hot NAT 1991 50 0 0 0 0 0 0 0 0 5 0 0 0
hot NAT 1992 50 0 0 0 0 0 0 0 0 1 0 0 0
hot NAT 1993 50 0 0 0 0 0 0 0 0 1 0 0 0
hot NAT 1994 50 0 0 0 0 0 0 0 0 8 0 0 0
hot NAT 1995 50 0 0 0 0 0 0 0 0 17 0 0 0
hot NAT 1996 50 0 0 0 0 0 0 0 0 0 0 0 0
hot NAT 1997 100 0 0 0 0 0 0 0 0 16 2 0 0
hot NAT 1998 100 0 0 0 0 0 0 0 0 33 1 0 0
hot NAT 1999 100 0 0 0 0 0 0 0 0 5 0 0 0
hot NAT 2000 100 0 0 0 0 0 0 0 0 2 0 0 0
hot NAT 2001 100 0 0 0 0 0 0 0 0 10 0 0 0
hot NAT 2002 100 0 0 0 0 0 0 0 0 4 0 0 0
hot NAT 2003 100 0 0 0 0 0 0 0 0 21 1 0 0
hot NAT 2004 100 0 0 0 0 0 0 0 0 10 0 0 0
hot NAT 2005 100 0 0 0 0 0 0 0 0 23 0 0 0
hot NAT 2006 100 0 0 0 0 0 0 0 0 15 2 0 0
hot NAT 2007 100 0 0 0 0 0 0 0 0 0 0 0 0
hot NAT 2008 100 0 0 0 0 0 0 0 0 7 0 0 0
hot NAT 2009 100 0 0 0 0 0 0 0 0 0 0 0 0
hot NAT 2010 100 0 0 0 0 0 0 0 0 13 0 0 0
hot NAT 2011 400 0 0 0 0 0 0 0 0 0 0 0 0
hot NAT 2012 400 0 0 0 0 0 0 0 0 91 5 0 0
hot NAT 2013 400 0 0 0 0 0 0 0 0 24 0 0 0
cold ALL 1982 50 0 0 0 0 2 6 0 0 0 0 0 0
cold ALL 1983 50 0 0 0 0 0 1 0 0 0 0 0 0
cold ALL 1984 50 0 0 0 0 1 11 0 0 0 0 0 0
cold ALL 1985 50 0 0 0 0 6 12 4 0 0 0 0 0
cold ALL 1986 50 0 0 0 0 2 8 0 0 0 0 0 0
cold ALL 1987 50 0 0 0 0 0 2 0 0 0 0 0 0
cold ALL 1988 50 0 0 0 0 0 1 3 0 0 0 0 0
cold ALL 1989 50 0 0 0 0 11 27 1 0 0 0 0 0
cold ALL 1990 50 0 0 0 0 0 4 0 0 0 0 0 0
cold ALL 1991 50 0 0 0 0 0 2 0 0 0 0 0 0
cold ALL 1992 50 0 0 0 0 0 5 1 0 0 0 0 0
cold ALL 1993 50 0 0 0 0 0 2 0 0 0 0 0 0
cold ALL 1994 50 0 0 0 0 1 0 0 0 0 0 0 0
cold ALL 1995 50 0 0 0 0 0 2 0 0 0 0 0 0
cold ALL 1996 50 0 0 0 0 1 3 1 0 0 0 0 0
cold ALL 1997 100 0 0 0 0 1 6 0 0 0 0 0 0
cold ALL 1998 100 0 0 0 0 0 0 0 0 0 0 0 0
cold ALL 1999 100 0 0 0 0 1 8 0 0 0 0 0 0
cold ALL 2000 100 0 0 0 0 2 5 3 0 0 0 0 0
cold ALL 2001 100 0 0 0 0 0 4 1 0 0 0 0 0
cold ALL 2002 100 0 0 0 0 0 2 0 0 0 0 0 0
cold ALL 2003 100 0 0 0 0 0 3 0 0 0 0 0 0
cold ALL 2004 100 0 0 0 0 0 2 0 0 0 0 0 0
cold ALL 2005 100 0 0 0 0 0 0 0 0 0 0 0 0
cold ALL 2006 100 0 0 0 0 0 2 0 0 0 0 0 0
cold ALL 2007 100 0 0 0 0 0 2 0 0 0 0 0 0
cold ALL 2008 100 0 0 0 0 2 23 2 0 0 0 0 0
cold ALL 2009 100 0 0 0 0 3 7 1 0 0 0 0 0
cold ALL 2010 100 0 0 0 0 0 0 0 0 0 0 0 0
cold ALL 2011 400 0 0 0 0 7 24 1 0 0 0 0 0
cold ALL 2012 400 0 0 0 0 0 6 0 0 0 0 0 0
cold ALL 2013 400 0 0 0 0 0 4 1 0 0 0 0 0
cold NAT 1982 50 0 0 0 0 10 23 2 0 0 0 0 0
cold NAT 1983 50 0 0 0 0 5 12 1 0 0 0 0 0
cold NAT 1984 50 0 0 0 1 29 45 17 0 0 0 0 0
cold NAT 1985 50 0 0 0 0 37 43 35 0 0 0 0 0
cold NAT 1986 50 0 0 0 0 33 47 25 0 0 0 0 0
cold NAT 1987 50 0 0 0 0 3 11 2 0 0 0 0 0
cold NAT 1988 50 0 0 0 0 7 33 18 0 0 0 0 0
cold NAT 1989 50 0 0 0 0 48 50 32 0 0 0 0 0
cold NAT 1990 50 0 0 0 0 24 42 8 0 0 0 0 0
cold NAT 1991 50 0 0 0 0 11 35 17 0 0 0 0 0
cold NAT 1992 50 0 0 0 0 5 30 13 0 0 0 0 0
cold NAT 1993 50 0 0 0 0 16 21 5 0 0 0 0 0
cold NAT 1994 50 0 0 0 0 25 39 11 0 0 0 0 0
cold NAT 1995 50 0 0 0 0 8 33 16 0 0 0 0 0
cold NAT 1996 50 0 0 0 0 22 46 25 0 0 0 0 0
cold NAT 1997 100 0 0 0 1 45 82 21 0 0 0 0 0
cold NAT 1998 100 0 0 0 0 12 28 3 0 0 0 0 0
cold NAT 1999 100 0 0 0 0 64 97 61 0 0 0 0 0
cold NAT 2000 100 0 0 0 0 77 98 68 0 0 0 0 0
cold NAT 2001 100 0 0 0 0 18 76 26 0 0 0 0 0
cold NAT 2002 100 0 0 0 0 22 52 21 0 0 0 0 0
cold NAT 2003 100 0 0 0 0 18 56 20 0 0 0 0 0
cold NAT 2004 100 0 0 0 0 33 77 34 0 0 0 0 0
cold NAT 2005 100 0 0 0 0 14 56 17 0 0 0 0 0
cold NAT 2006 100 0 0 0 2 55 86 37 0 0 0 0 0
cold NAT 2007 100 0 0 0 0 39 79 48 0 0 0 0 0
cold NAT 2008 100 0 0 0 3 98 100 92 0 0 0 0 0
cold NAT 2009 100 0 0 0 0 64 92 29 0 0 0 0 0
cold NAT 2010 100 0 0 0 0 4 16 14 0 0 0 0 0
cold NAT 2011 400 0 0 0 3 347 390 224 0 0 0 0 0
cold NAT 2012 400 0 0 0 1 168 304 213 0 0 0 0 0
cold NAT 2013 400 0 0 0 0 127 293 98 0 0 0 0 0
wet ALL 1982 50 3 3 0 0 0 0 0 0 0 0 0 0
wet ALL 1983 50 3 6 0 0 0 0 0 0 0 0 0 0
wet ALL 1984 50 1 1 0 0 0 0 0 0 0 0 0 0
wet ALL 1985 50 2 1 0 0 0 0 0 0 0 0 0 1
wet ALL 1986 50 0 1 0 0 0 0 0 0 0 0 0 0
wet ALL 1987 50 1 4 0 0 0 0 0 0 0 0 0 1
wet ALL 1988 50 2 1 1 0 0 0 0 0 0 0 0 0
wet ALL 1989 50 0 0 0 0 0 0 0 0 0 0 0 0
wet ALL 1990 50 3 2 1 0 0 0 0 0 0 0 0 0
wet ALL 1991 50 2 4 0 0 0 0 0 0 0 0 0 0
wet ALL 1992 50 5 0 0 0 0 0 0 0 0 0 0 0
wet ALL 1993 50 2 0 0 0 0 0 0 0 0 0 0 0
wet ALL 1994 50 0 2 0 0 0 0 0 0 0 0 0 1
wet ALL 1995 50 3 3 1 0 0 0 0 0 0 0 0 0
wet ALL 1996 50 0 1 0 0 0 0 0 0 0 0 0 0
wet ALL 1997 100 1 4 0 0 0 0 0 0 0 0 0 0
wet ALL 1998 100 1 14 3 0 0 0 0 0 0 0 0 0
wet ALL 1999 100 1 1 0 0 0 0 0 0 0 0 0 1
wet ALL 2000 100 2 1 4 0 0 0 0 0 0 0 0 1
wet ALL 2001 100 1 2 0 0 0 0 0 0 0 0 0 0
wet ALL 2002 100 4 11 3 0 0 0 0 0 0 0 0 0
wet ALL 2003 100 14 10 1 0 0 0 0 0 0 0 0 1
wet ALL 2004 100 7 8 0 0 0 0 0 0 0 0 0 0
wet ALL 2005 100 5 4 2 0 0 0 0 0 0 0 0 1
wet ALL 2006 100 2 0 0 0 0 0 0 0 0 0 0 0
wet ALL 2007 100 15 16 2 0 0 0 0 0 0 0 0 3
wet ALL 2008 100 3 0 2 0 0 0 0 0 0 0 0 0
wet ALL 2009 100 1 0 0 0 0 0 0 0 0 0 0 1
wet ALL 2010 100 3 6 1 0 0 0 0 0 0 0 0 4
wet ALL 2011 400 6 9 2 0 0 0 0 0 0 0 0 0
wet ALL 2012 400 5 8 0 0 0 0 0 0 0 0 0 0
wet ALL 2013 400 16 20 3 0 0 0 0 0 0 0 0 2
wet NAT 1982 50 0 0 1 0 0 0 0 0 0 0 0 0
wet NAT 1983 50 2 8 0 0 0 0 0 0 0 0 0 0
wet NAT 1984 50 0 0 0 0 0 0 0 0 0 0 0 0
wet NAT 1985 50 0 2 0 0 0 0 0 0 0 0 0 0
wet NAT 1986 50 0 0 0 0 0 0 0 0 0 0 0 0
wet NAT 1987 50 2 1 0 0 0 0 0 0 0 0 0 1
wet NAT 1988 50 0 1 0 0 0 0 0 0 0 0 0 0
wet NAT 1989 50 0 0 0 0 0 0 0 0 0 0 0 0
wet NAT 1990 50 0 1 0 0 0 0 0 0 0 0 0 0
wet NAT 1991 50 1 3 1 0 0 0 0 0 0 0 0 0
wet NAT 1992 50 0 0 0 0 0 0 0 0 0 0 0 0
wet NAT 1993 50 4 0 0 0 0 0 0 0 0 0 0 0
wet NAT 1994 50 1 1 0 0 0 0 0 0 0 0 0 0
wet NAT 1995 50 1 3 0 0 0 0 0 0 0 0 0 0
wet NAT 1996 50 0 1 0 0 0 0 0 0 0 0 0 0
wet NAT 1997 100 1 0 0 0 0 0 0 0 0 0 0 0
wet NAT 1998 100 2 8 1 0 0 0 0 0 0 0 0 0
wet NAT 1999 100 0 0 0 0 0 0 0 0 0 0 0 1
wet NAT 2000 100 1 1 2 0 0 0 0 0 0 0 0 0
wet NAT 2001 100 0 0 0 0 0 0 0 0 0 0 0 0
wet NAT 2002 100 4 9 3 0 0 0 0 0 0 0 0 0
wet NAT 2003 100 10 4 1 0 0 0 0 0 0 0 0 0
wet NAT 2004 100 6 4 0 0 0 0 0 0 0 0 0 0
wet NAT 2005 100 5 0 0 0 0 0 0 0 0 0 0 0
wet NAT 2006 100 0 0 0 0 0 0 0 0 0 0 0 0
wet NAT 2007 100 4 5 0 0 0 0 0 0 0 0 0 0
wet NAT 2008 100 2 1 2 0 0 0 0 0 0 0 0 0
wet NAT 2009 100 0 0 0 0 0 0 0 0 0 0 0 1
wet NAT 2010 100 1 2 0 0 0 0 0 0 0 0 0 3
wet NAT 2011 400 3 8 8 0 0 0 0 0 0 0 0 0
wet NAT 2012 400 4 2 0 0 0 0 0 0 0 0 0 0
wet NAT 2013 400 3 6 0 0 0 0 0 0 0 0 0 2
