event_type scenario year n_sims january february march april may june july august september october november december
hot ALL 1982 50 0 0 0 0 0 0 6 0 0 0 0 0
hot ALL 1983 50 0 0 0 0 0 0 3 0 0 0 0 0
hot ALL 1984 50 0 0 0 0 0 0 2 0 0 0 0 0
hot ALL 1985 50 0 0 0 0 0 0 12 0 0 0 0 0
hot ALL 1986 50 0 0 0 0 0 0 11 0 0 0 0 0
hot ALL 1987 50 0 0 0 0 0 0 0 0 0 0 0 0
hot ALL 1988 50 0 0 0 0 0 0 8 0 0 0 0 0
hot ALL 1989 50 0 0 0 0 0 0 14 0 0 0 0 0
hot ALL 1990 50 0 0 0 0 0 0 10 0 0 0 0 0
hot ALL 1991 50 0 0 0 0 0 0 11 0 0 0 0 0
hot ALL 1992 50 0 0 0 0 0 0 5 0 0 0 0 0
hot ALL 1993 50 0 0 0 0 0 0 6 0 0 0 0 0
hot ALL 1994 50 0 0 0 0 0 0 3 1 0 0 0 0
hot ALL 1995 50 0 0 0 0 0 0 14 0 0 0 0 0
hot ALL 1996 50 0 0 0 0 0 0 10 0 0 0 0 0
hot ALL 1997 100 0 0 0 0 0 0 17 0 0 0 0 0
hot ALL 1998 100 0 0 0 0 0 0 24 1 0 0 0 0
hot ALL 1999 100 0 0 0 0 0 0 58 0 0 0 0 0
hot ALL 2000 100 0 0 0 0 0 0 41 0 0 0 0 0
hot ALL 2001 100 0 0 0 0 0 0 31 2 0 0 0 0
hot ALL 2002 100 0 0 0 0 0 0 58 2 0 0 0 0
hot ALL 2003 100 0 0 0 0 0 0 31 1 0 0 0 0
hot ALL 2004 100 0 0 0 0 0 0 51 2 0 0 0 0
hot ALL 2005 100 0 0 0 0 0 0 50 1 0 0 0 0
hot ALL 2006 100 0 0 0 0 0 0 34 0 0 0 0 0
hot ALL 2007 100 0 0 0 0 0 0 36 1 0 0 0 0
hot ALL 2008 100 0 0 0 0 0 0 33 1 0 0 0 0
hot ALL 2009 100 0 0 0 0 0 0 31 1 0 0 0 0
hot ALL 2010 100 0 0 0 0 0 0 62 11 0 0 0 0
hot ALL 2011 400 0 0 0 0 0 0 127 1 0 0 0 0
hot ALL 2012 400 0 0 0 0 0 1 223 27 0 0 0 0
hot ALL 2013 400 0 0 0 0 0 0 247 11 0 0 0 0
hot NAT 1982 50 0 0 0 0 0 0 5 0 0 0 0 0
hot NAT 1983 50 0 0 0 0 0 0 2 0 0 0 0 0
hot NAT 1984 50 0 0 0 0 0 0 4 0 0 0 0 0
hot NAT 1985 50 0 0 0 0 0 0 3 0 0 0 0 0
hot NAT 1986 50 0 0 0 0 0 0 5 0 0 0 0 0
hot NAT 1987 50 0 0 0 0 0 0 2 0 0 0 0 0
hot NAT 1988 50 0 0 0 0 0 0 9 0 0 0 0 0
hot NAT 1989 50 0 0 0 0 0 0 3 0 0 0 0 0
hot NAT 1990 50 0 0 0 0 0 0 4 0 0 0 0 0
hot NAT 1991 50 0 0 0 0 0 0 7 0 0 0 0 0
hot NAT 1992 50 0 0 0 0 0 0 1 0 0 0 0 0
hot NAT 1993 50 0 0 0 0 0 0 1 0 0 0 0 0
hot NAT 1994 50 0 0 0 0 0 0 3 0 0 0 0 0
hot NAT 1995 50 0 0 0 0 0 0 6 0 0 0 0 0
hot NAT 1996 50 0 0 0 0 0 0 7 0 0 0 0 0
hot NAT 1997 100 0 0 0 0 0 0 6 0 0 0 0 0
hot NAT 1998 100 0 0 0 0 0 0 6 1 0 0 0 0
hot NAT 1999 100 0 0 0 0 0 0 28 0 0 0 0 0
hot NAT 2000 100 0 0 0 0 0 0 14 0 0 0 0 0
hot NAT 2001 100 0 0 0 0 0 0 9 0 0 0 0 0
hot NAT 2002 100 0 0 0 0 0 0 15 0 0 0 0 0
hot NAT 2003 100 0 0 0 0 0 0 10 0 0 0 0 0
hot NAT 2004 100 0 0 0 0 0 0 8 0 0 0 0 0
hot NAT 2005 100 0 0 0 0 0 0 12 0 0 0 0 0
hot NAT 2006 100 0 0 0 0 0 0 7 0 0 0 0 0
hot NAT 2007 100 0 0 0 0 0 0 3 0 0 0 0 0
hot NAT 2008 100 0 0 0 0 0 0 11 0 0 0 0 0
hot NAT 2009 100 0 0 0 0 0 0 3 0 0 0 0 0
hot NAT 2010 100 0 0 0 0 0 0 19 0 0 0 0 0
hot NAT 2011 400 0 0 0 0 0 0 42 0 0 0 0 0
hot NAT 2012 400 0 0 0 0 0 0 43 0 0 0 0 0
hot NAT 2013 400 0 0 0 0 0 0 34 0 0 0 0 0
cold ALL 1982 50 2 0 0 0 0 0 0 0 0 0 0 0
cold ALL 1983 50 4 0 0 0 0 0 0 0 0 0 0 1
cold ALL 1984 50 7 0 0 0 0 0 0 0 0 0 0 0
cold ALL 1985 50 5 0 0 0 0 0 0 0 0 0 0 0
cold ALL 1986 50 6 1 0 0 0 0 0 0 0 0 0 0
cold ALL 1987 50 5 0 0 0 0 0 0 0 0 0 0 0
cold ALL 1988 50 0 0 0 0 0 0 0 0 0 0 0 0
cold ALL 1989 50 11 0 0 0 0 0 0 0 0 0 0 0
cold ALL 1990 50 7 0 0 0 0 0 0 0 0 0 0 1
cold ALL 1991 50 5 0 0 0 0 0 0 0 0 0 0 0
cold ALL 1992 50 6 0 0 0 0 0 0 0 0 0 0 0
cold ALL 1993 50 4 0 0 0 0 0 0 0 0 0 0 0
cold ALL 1994 50 5 0 0 0 0 0 0 0 0 0 0 0
cold ALL 1995 50 8 0 0 0 0 0 0 0 0 0 0 0
cold ALL 1996 50 6 0 0 0 0 0 0 0 0 0 0 0
cold ALL 1997 100 15 0 0 0 0 0 0 0 0 0 0 0
cold ALL 1998 100 4 0 0 0 0 0 0 0 0 0 0 0
cold ALL 1999 100 7 0 0 0 0 0 0 0 0 0 0 0
cold ALL 2000 100 8 0 0 0 0 0 0 0 0 0 0 0
cold ALL 2001 100 10 0 0 0 0 0 0 0 0 0 0 0
cold ALL 2002 100 15 0 0 0 0 0 0 0 0 0 0 0
cold ALL 2003 100 6 0 0 0 0 0 0 0 0 0 0 0
cold ALL 2004 100 10 0 0 0 0 0 0 0 0 0 0 0
cold ALL 2005 100 8 0 0 0 0 0 0 0 0 0 0 0
cold ALL 2006 100 12 0 0 0 0 0 0 0 0 0 0 0
cold ALL 2007 100 4 0 0 0 0 0 0 0 0 0 0 0
cold ALL 2008 100 15 0 0 0 0 0 0 0 0 0 0 0
cold ALL 2009 100 6 0 0 0 0 0 0 0 0 0 0 0
cold ALL 2010 100 9 0 0 0 0 0 0 0 0 0 0 0
cold ALL 2011 400 20 0 0 0 0 0 0 0 0 0 0 1
cold ALL 2012 400 56 0 0 0 0 0 0 0 0 0 0 0
cold ALL 2013 400 25 0 0 0 0 0 0 0 0 0 0 0
cold NAT 1982 50 8 2 0 0 0 0 0 0 0 0 0 4
cold NAT 1983 50 11 0 0 0 0 0 0 0 0 0 0 0
cold NAT 1984 50 10 0 0 0 0 0 0 0 0 0 0 0
cold NAT 1985 50 13 1 0 0 0 0 0 0 0 0 0 0
cold NAT 1986 50 8 0 0 0 0 0 0 0 0 0 0 1
cold NAT 1987 50 9 0 0 0 0 0 0 0 0 0 0 1
cold NAT 1988 50 6 0 0 0 0 0 0 0 0 0 0 0
cold NAT 1989 50 19 0 0 0 0 0 0 0 0 0 0 0
cold NAT 1990 50 16 0 0 0 0 0 0 0 0 0 0 1
cold NAT 1991 50 13 0 0 0 0 0 0 0 0 0 0 1
cold NAT 1992 50 12 0 0 0 0 0 0 0 0 0 0 3
cold NAT 1993 50 15 1 0 0 0 0 0 0 0 0 0 0
cold NAT 1994 50 13 0 0 0 0 0 0 0 0 0 0 0
cold NAT 1995 50 10 0 0 0 0 0 0 0 0 0 0 0
cold NAT 1996 50 8 0 0 0 0 0 0 0 0 0 0 0
cold NAT 1997 100 34 0 0 0 0 0 0 0 0 0 0 1
cold NAT 1998 100 16 0 0 0 0 0 0 0 0 0 0 1
cold NAT 1999 100 19 0 0 0 0 0 0 0 0 0 0 2
cold NAT 2000 100 25 1 0 0 0 0 0 0 0 0 0 2
cold NAT 2001 100 18 0 0 0 0 0 0 0 0 0 0 1
cold NAT 2002 100 23 0 0 0 0 0 0 0 0 0 0 0
cold NAT 2003 100 14 1 0 0 0 0 0 0 0 0 0 0
cold NAT 2004 100 24 0 0 0 0 0 0 0 0 0 0 3
cold NAT 2005 100 22 0 0 0 0 0 0 0 0 0 0 0
cold NAT 2006 100 25 0 0 0 0 0 0 0 0 0 0 0
cold NAT 2007 100 16 1 0 0 0 0 0 0 0 0 0 2
cold NAT 2008 100 42 0 0 0 0 0 0 0 0 0 0 0
cold NAT 2009 100 16 0 0 0 0 0 0 0 0 0 0 1
cold NAT 2010 100 20 0 0 0 0 0 0 0 0 0 0 2
cold NAT 2011 400 77 3 0 0 0 0 0 0 0 0 0 17
cold NAT 2012 400 149 4 0 0 0 0 0 0 0 0 0 9
cold NAT 2013 400 85 2 0 0 0 0 0 0 0 0 0 3
wet ALL 1982 50 0 0 0 0 3 1 0 0 0 0 0 0
wet ALL 1983 50 0 0 0 0 0 5 0 0 0 0 0 0
wet ALL 1984 50 0 0 0 0 0 0 0 0 0 0 0 0
wet ALL 1985 50 0 0 0 0 0 0 0 0 0 0 0 0
wet ALL 1986 50 0 0 0 0 0 0 0 0 0 0 0 0
wet ALL 1987 50 0 0 0 0 1 1 1 0 0 0 0 0
wet ALL 1988 50 0 0 0 0 0 3 0 0 0 0 0 0
wet ALL 1989 50 0 0 0 0 1 0 0 0 0 0 0 0
wet ALL 1990 50 0 0 0 0 1 2 0 0 0 0 0 0
wet ALL 1991 50 0 0 0 0 2 1 0 0 0 0 0 0
wet ALL 1992 50 0 0 0 0 1 0 0 1 0 0 0 0
wet ALL 1993 50 0 0 0 0 1 6 0 0 0 0 0 0
wet ALL 1994 50 0 0 0 0 1 2 0 0 0 0 0 0
wet ALL 1995 50 0 0 0 0 2 3 0 1 0 0 0 0
wet ALL 1996 50 0 0 0 0 2 2 0 0 0 0 0 0
wet ALL 1997 100 0 0 0 0 1 1 0 0 0 0 0 0
wet ALL 1998 100 0 0 0 0 7 13 2 0 0 0 0 0
wet ALL 1999 100 0 0 0 0 3 1 0 0 0 0 0 0
wet ALL 2000 100 0 0 0 0 1 6 1 0 0 0 0 0
wet ALL 2001 100 0 0 0 0 2 3 0 0 0 0 0 0
wet ALL 2002 100 0 0 0 0 1 2 0 0 0 0 0 0
wet ALL 2003 100 0 0 0 0 3 11 3 0 0 0 0 0
wet ALL 2004 100 0 0 0 0 4 10 0 0 0 0 0 0
wet ALL 2005 100 0 0 0 0 2 9 3 1 0 0 0 0
wet ALL 2006 100 0 0 0 0 5 12 3 1 0 0 0 0
wet ALL 2007 100 0 0 0 0 3 7 2 0 0 0 0 0
wet ALL 2008 100 0 0 0 0 4 7 6 1 0 0 0 0
wet ALL 2009 100 0 0 0 0 4 9 3 0 0 0 0 0
wet ALL 2010 100 0 0 0 1 2 5 0 0 0 0 0 0
wet ALL 2011 400 0 0 0 0 14 32 18 11 0 0 0 0
wet ALL 2012 400 0 0 0 0 11 22 4 0 0 0 0 0
wet ALL 2013 400 0 0 0 0 12 23 7 0 0 0 0 0
wet NAT 1982 50 0 0 0 0 2 4 0 1 0 0 0 0
wet NAT 1983 50 0 0 0 0 1 7 3 0 0 0 0 0
wet NAT 1984 50 0 0 0 0 1 2 2 0 0 0 0 0
wet NAT 1985 50 0 0 0 0 0 2 0 0 0 0 0 0
wet NAT 1986 50 0 0 0 0 1 1 1 0 0 0 0 0
wet NAT 1987 50 0 0 0 0 1 4 3 0 0 0 0 0
wet NAT 1988 50 0 0 0 0 3 1 2 0 0 0 0 0
wet NAT 1989 50 0 0 0 0 0 1 2 0 0 0 0 0
wet NAT 1990 50 0 0 0 0 0 1 0 0 0 0 0 0
wet NAT 1991 50 0 0 0 0 3 2 0 0 0 0 0 0
wet NAT 1992 50 0 0 0 0 0 1 4 0 0 0 0 0
wet NAT 1993 50 0 0 0 0 0 4 0 0 0 0 0 0
wet NAT 1994 50 0 0 0 0 0 2 0 0 0 0 0 0
wet NAT 1995 50 0 0 0 0 1 3 2 0 0 0 0 0
wet NAT 1996 50 0 0 0 0 3 5 2 0 0 0 0 0
wet NAT 1997 100 0 0 0 0 0 7 2 0 0 0 0 0
wet NAT 1998 100 0 0 0 0 7 21 1 0 0 0 0 0
wet NAT 1999 100 0 0 0 0 3 6 1 0 0 0 0 0
wet NAT 2000 100 0 0 0 0 1 4 1 0 0 0 0 0
wet NAT 2001 100 0 0 0 0 0 8 1 0 0 0 0 0
wet NAT 2002 100 0 0 0 0 2 5 0 0 0 0 0 0
wet NAT 2003 100 0 0 0 0 1 12 4 0 0 0 0 0
wet NAT 2004 100 0 0 0 0 0 7 3 0 0 0 0 0
wet NAT 2005 100 0 0 0 0 2 7 1 0 0 0 0 0
wet NAT 2006 100 0 0 0 0 0 7 3 0 0 0 0 0
wet NAT 2007 100 0 0 0 0 2 9 2 0 0 0 0 0
wet NAT 2008 100 0 0 0 0 2 7 4 0 0 0 0 0
wet NAT 2009 100 0 0 0 0 0 8 3 0 0 0 0 0
wet NAT 2010 100 0 0 0 0 1 11 2 0 0 0 0 0
wet NAT 2011 400 0 0 0 0 5 39 26 7 0 0 0 0
wet NAT 2012 400 0 0 0 0 9 18 6 0 0 0 0 0
wet NAT 2013 400 0 0 0 0 10 17 7 1 0 0 0 0
