event_type scenario year n_sims january february march april may june july august september october november december
hot ALL 1982 50 0 0 0 0 0 1 43 1 0 0 0 0
hot ALL 1983 50 0 0 0 0 0 3 43 6 0 0 0 0
hot ALL 1984 50 0 0 0 0 0 0 26 0 0 0 0 0
hot ALL 1985 50 0 0 0 0 0 0 25 1 0 0 0 0
hot ALL 1986 50 0 0 0 0 0 0 24 2 0 0 0 0
hot ALL 1987 50 0 0 0 0 0 4 45 19 0 0 0 0
hot ALL 1988 50 0 0 0 0 0 5 35 2 0 0 0 0
hot ALL 1989 50 0 0 0 0 0 0 32 2 0 0 0 0
hot ALL 1990 50 0 0 0 0 0 9 43 9 0 0 0 0
hot ALL 1991 50 0 0 0 0 0 2 42 9 0 0 0 0
hot ALL 1992 50 0 0 0 0 0 0 35 4 0 0 0 0
hot ALL 1993 50 0 0 0 0 0 3 42 8 0 0 0 0
hot ALL 1994 50 0 0 0 0 0 5 44 11 0 0 0 0
hot ALL 1995 50 0 0 0 0 0 5 47 5 0 0 0 0
hot ALL 1996 50 0 0 0 0 0 5 41 5 0 0 0 0
hot ALL 1997 100 0 0 0 0 0 12 94 58 0 0 0 0
hot ALL 1998 100 0 0 0 0 0 34 100 49 0 0 0 0
hot ALL 1999 100 0 0 0 0 0 28 93 15 0 0 0 0
hot ALL 2000 100 0 0 0 0 0 17 89 23 0 0 0 0
hot ALL 2001 100 0 0 0 0 0 35 97 37 0 0 0 0
hot ALL 2002 100 0 0 0 0 0 36 99 50 0 0 0 0
hot ALL 2003 100 0 0 0 0 0 48 100 65 0 0 0 0
hot ALL 2004 100 0 0 0 0 0 39 97 39 0 0 0 0
hot ALL 2005 100 0 0 0 0 0 45 98 35 0 0 0 0
hot ALL 2006 100 0 0 0 0 0 50 100 23 0 0 0 0
hot ALL 2007 100 0 0 0 0 0 33 96 38 0 0 0 0
hot ALL 2008 100 0 0 0 0 0 32 90 30 0 0 0 0
hot ALL 2009 100 0 0 0 0 0 25 99 62 0 0 0 0
hot ALL 2010 100 0 0 0 0 0 66 100 70 0 0 0 0
hot ALL 2011 400 0 0 0 0 0 158 395 127 0 0 0 0
hot ALL 2012 400 0 0 0 0 0 180 400 230 0 0 0 0
hot ALL 2013 400 0 0 0 0 0 176 397 234 0 0 0 0
hot NAT 1982 50 0 0 0 0 0 0 6 0 0 0 0 0
hot NAT 1983 50 0 0 0 0 0 0 19 0 0 0 0 0
hot NAT 1984 50 0 0 0 0 0 0 0 0 0 0 0 0
hot NAT 1985 50 0 0 0 0 0 0 2 0 0 0 0 0
hot NAT 1986 50 0 0 0 0 0 0 1 0 0 0 0 0
hot NAT 1987 50 0 0 0 0 0 0 18 0 0 0 0 0
hot NAT 1988 50 0 0 0 0 0 0 7 0 0 0 0 0
hot NAT 1989 50 0 0 0 0 0 0 0 0 0 0 0 0
hot NAT 1990 50 0 0 0 0 0 0 7 0 0 0 0 0
hot NAT 1991 50 0 0 0 0 0 0 5 0 0 0 0 0
hot NAT 1992 50 0 0 0 0 0 0 0 0 0 0 0 0
hot NAT 1993 50 0 0 0 0 0 0 4 0 0 0 0 0
hot NAT 1994 50 0 0 0 0 0 0 4 0 0 0 0 0
hot NAT 1995 50 0 0 0 0 0 0 5 0 0 0 0 0
hot NAT 1996 50 0 0 0 0 0 0 0 0 0 0 0 0
hot NAT 1997 100 0 0 0 0 0 0 11 0 0 0 0 0
hot NAT 1998 100 0 0 0 0 0 0 34 0 0 0 0 0
hot NAT 1999 100 0 0 0 0 0 0 5 0 0 0 0 0
hot NAT 2000 100 0 0 0 0 0 0 0 0 0 0 0 0
hot NAT 2001 100 0 0 0 0 0 0 4 0 0 0 0 0
hot NAT 2002 100 0 0 0 0 0 0 6 0 0 0 0 0
hot NAT 2003 100 0 0 0 0 0 0 17 0 0 0 0 0
hot NAT 2004 100 0 0 0 0 0 0 5 0 0 0 0 0
hot NAT 2005 100 0 0 0 0 0 0 27 0 0 0 0 0
hot NAT 2006 100 0 0 0 0 0 0 23 0 0 0 0 0
hot NAT 2007 100 0 0 0 0 0 0 7 0 0 0 0 0
hot NAT 2008 100 0 0 0 0 0 0 4 0 0 0 0 0
hot NAT 2009 100 0 0 0 0 0 0 5 0 0 0 0 0
hot NAT 2010 100 0 0 0 0 0 1 21 0 0 0 0 0
hot NAT 2011 400 0 0 0 0 0 0 18 0 0 0 0 0
hot NAT 2012 400 0 0 0 0 0 0 20 0 0 0 0 0
hot NAT 2013 400 0 0 0 0 0 0 6 0 0 0 0 0
cold ALL 1982 50 6 0 0 0 0 0 0 0 0 0 0 0
cold ALL 1983 50 7 0 0 0 0 0 0 0 0 0 0 0
cold ALL 1984 50 8 0 0 0 0 0 0 0 0 0 0 0
cold ALL 1985 50 13 0 0 0 0 0 0 0 0 0 0 0
cold ALL 1986 50 8 0 0 0 0 0 0 0 0 0 0 1
cold ALL 1987 50 10 0 0 0 0 0 0 0 0 0 0 0
cold ALL 1988 50 0 0 0 0 0 0 0 0 0 0 0 1
cold ALL 1989 50 11 0 0 0 0 0 0 0 0 0 0 0
cold ALL 1990 50 3 0 0 0 0 0 0 0 0 0 0 1
cold ALL 1991 50 5 0 0 0 0 0 0 0 0 0 0 0
cold ALL 1992 50 9 0 0 0 0 0 0 0 0 0 0 0
cold ALL 1993 50 7 0 0 0 0 0 0 0 0 0 0 0
cold ALL 1994 50 6 0 0 0 0 0 0 0 0 0 0 0
cold ALL 1995 50 5 0 0 0 0 0 0 0 0 0 0 0
cold ALL 1996 50 3 0 0 0 0 0 0 0 0 0 0 1
cold ALL 1997 100 18 0 0 0 0 0 0 0 0 0 0 1
cold ALL 1998 100 3 0 0 0 0 0 0 0 0 0 0 0
cold ALL 1999 100 8 0 0 0 0 0 0 0 0 0 0 0
cold ALL 2000 100 10 0 0 0 0 0 0 0 0 0 0 0
cold ALL 2001 100 10 0 0 0 0 0 0 0 0 0 0 0
cold ALL 2002 100 6 0 0 0 0 0 0 0 0 0 0 0
cold ALL 2003 100 2 0 0 0 0 0 0 0 0 0 0 1
cold ALL 2004 100 4 0 0 0 0 0 0 0 0 0 0 0
cold ALL 2005 100 3 0 0 0 0 0 0 0 0 0 0 0
cold ALL 2006 100 8 0 0 0 0 0 0 0 0 0 0 0
cold ALL 2007 100 0 0 0 0 0 0 0 0 0 0 0 0
cold ALL 2008 100 6 0 0 0 0 0 0 0 0 0 0 0
cold ALL 2009 100 8 0 0 0 0 0 0 0 0 0 0 0
cold ALL 2010 100 2 0 0 0 0 0 0 0 0 0 0 1
cold ALL 2011 400 46 0 0 0 0 0 0 0 0 0 0 0
cold ALL 2012 400 29 0 0 0 0 0 0 0 0 0 0 0
cold ALL 2013 400 28 0 0 0 0 0 0 0 0 0 0 1
cold NAT 1982 50 17 0 0 0 0 0 0 0 0 0 0 4
cold NAT 1983 50 10 0 0 0 0 0 0 0 0 0 0 5
cold NAT 1984 50 22 0 0 0 0 0 0 0 0 0 0 7
cold NAT 1985 50 33 1 0 0 0 0 0 0 0 0 0 7
cold NAT 1986 50 13 1 0 0 0 0 0 0 0 0 0 4
cold NAT 1987 50 19 0 0 0 0 0 0 0 0 0 0 3
cold NAT 1988 50 6 0 0 0 0 0 0 0 0 0 0 9
cold NAT 1989 50 31 0 0 0 0 0 0 0 0 0 0 6
cold NAT 1990 50 16 0 0 0 0 0 0 0 0 0 0 7
cold NAT 1991 50 16 2 0 0 0 0 0 0 0 0 0 10
cold NAT 1992 50 18 0 0 0 0 0 0 0 0 0 0 6
cold NAT 1993 50 15 0 0 0 0 0 0 0 0 0 0 5
cold NAT 1994 50 22 0 0 0 0 0 0 0 0 0 0 3
cold NAT 1995 50 19 0 0 0 0 0 0 0 0 0 0 4
cold NAT 1996 50 19 0 0 0 0 0 0 0 0 0 0 6
cold NAT 1997 100 53 0 0 0 0 0 0 0 0 0 0 8
cold NAT 1998 100 24 0 0 0 0 0 0 0 0 0 0 15
cold NAT 1999 100 44 1 0 0 0 0 0 0 0 0 0 13
cold NAT 2000 100 51 1 0 0 0 0 0 0 0 0 0 11
cold NAT 2001 100 39 0 0 0 0 0 0 0 0 0 0 6
cold NAT 2002 100 44 1 0 0 0 0 0 0 0 0 0 3
cold NAT 2003 100 19 0 0 0 0 0 0 0 0 0 0 9
cold NAT 2004 100 37 0 0 0 0 0 0 0 0 0 0 7
cold NAT 2005 100 32 0 0 0 0 0 0 0 0 0 0 10
cold NAT 2006 100 35 0 0 0 0 0 0 0 0 0 0 5
cold NAT 2007 100 21 0 0 0 0 0 0 0 0 0 0 10
cold NAT 2008 100 53 0 0 0 0 0 0 0 0 0 0 11
cold NAT 2009 100 44 3 0 0 0 0 0 0 0 0 0 8
cold NAT 2010 100 26 0 0 0 0 0 0 0 0 0 0 19
cold NAT 2011 400 204 4 0 0 0 0 0 0 0 0 0 48
cold NAT 2012 400 224 1 0 0 0 0 0 0 0 0 0 37
cold NAT 2013 400 155 4 0 0 0 0 0 0 0 0 0 44
wet ALL 1982 50 0 0 0 0 0 0 0 0 0 1 0 0
wet ALL 1983 50 0 0 0 0 0 0 0 1 0 0 0 0
wet ALL 1984 50 0 0 0 0 0 0 0 0 3 0 0 0
wet ALL 1985 50 0 0 0 0 0 0 0 0 5 1 0 0
wet ALL 1986 50 0 0 0 0 0 0 0 0 1 0 0 0
wet ALL 1987 50 0 0 0 0 0 0 0 0 0 0 0 0
wet ALL 1988 50 0 0 0 0 0 0 0 0 1 0 0 0
wet ALL 1989 50 0 0 0 0 0 0 0 0 3 1 0 0
wet ALL 1990 50 0 0 0 0 0 0 0 0 0 1 0 0
wet ALL 1991 50 0 0 0 0 0 0 0 0 0 0 0 0
wet ALL 1992 50 0 0 0 0 1 0 0 0 0 0 0 0
wet ALL 1993 50 0 0 0 0 0 0 0 0 3 2 0 0
wet ALL 1994 50 0 0 0 0 0 0 0 0 0 0 0 0
wet ALL 1995 50 0 0 0 0 0 0 0 1 4 1 0 0
wet ALL 1996 50 0 0 0 0 0 0 0 0 1 0 0 0
wet ALL 1997 100 0 0 0 0 1 0 0 0 0 0 0 0
wet ALL 1998 100 0 0 1 0 1 0 0 1 2 0 0 0
wet ALL 1999 100 0 0 0 0 0 0 0 1 10 1 0 0
wet ALL 2000 100 0 0 0 0 0 0 0 0 2 2 0 0
wet ALL 2001 100 0 0 0 0 0 0 0 0 7 1 0 0
wet ALL 2002 100 0 0 0 0 0 0 0 0 2 2 0 0
wet ALL 2003 100 0 0 0 0 0 0 0 1 5 5 0 0
wet ALL 2004 100 0 0 0 0 0 0 0 1 20 3 0 0
wet ALL 2005 100 0 0 0 0 0 0 0 1 28 14 0 0
wet ALL 2006 100 0 0 0 0 0 0 0 7 19 2 0 0
wet ALL 2007 100 0 0 0 0 0 0 0 0 11 7 0 0
wet ALL 2008 100 0 0 0 0 0 0 0 2 10 6 0 0
wet ALL 2009 100 0 0 0 0 0 0 0 1 6 0 0 0
wet ALL 2010 100 0 0 0 0 1 0 0 0 4 6 0 0
wet ALL 2011 400 0 0 0 0 2 0 0 5 74 52 0 0
wet ALL 2012 400 0 0 0 0 0 0 0 5 24 22 0 0
wet ALL 2013 400 0 0 0 0 0 0 0 1 19 2 0 0
wet NAT 1982 50 0 0 0 0 0 0 0 0 0 0 0 0
wet NAT 1983 50 0 0 0 0 0 0 0 0 3 1 0 0
wet NAT 1984 50 0 0 0 0 0 0 0 0 1 0 0 0
wet NAT 1985 50 0 0 0 0 0 0 0 0 2 0 0 0
wet NAT 1986 50 1 0 0 0 0 0 0 0 0 0 0 0
wet NAT 1987 50 0 0 0 0 0 0 0 0 1 0 0 0
wet NAT 1988 50 0 0 0 0 0 0 0 0 0 0 0 0
wet NAT 1989 50 0 0 0 0 0 0 0 0 4 0 0 0
wet NAT 1990 50 0 0 0 0 0 0 0 0 0 1 0 0
wet NAT 1991 50 0 0 0 0 0 0 0 0 0 0 0 0
wet NAT 1992 50 0 0 0 0 0 0 0 0 1 0 0 0
wet NAT 1993 50 0 0 0 0 0 0 0 0 2 1 0 0
wet NAT 1994 50 0 0 0 0 0 0 0 1 2 1 0 0
wet NAT 1995 50 0 0 1 0 0 0 0 0 2 1 0 0
wet NAT 1996 50 0 0 0 0 0 0 0 0 2 0 0 0
wet NAT 1997 100 0 0 0 0 0 0 0 0 0 0 0 0
wet NAT 1998 100 0 0 0 0 0 0 0 0 1 0 0 0
wet NAT 1999 100 0 0 0 0 0 0 0 3 13 3 0 0
wet NAT 2000 100 0 0 0 0 0 0 0 0 1 1 0 0
wet NAT 2001 100 0 0 0 0 0 0 0 1 6 0 0 0
wet NAT 2002 100 0 0 0 0 0 0 0 0 1 1 0 0
wet NAT 2003 100 0 0 0 0 0 0 0 0 3 8 0 0
wet NAT 2004 100 0 0 0 0 0 0 0 0 7 3 0 0
wet NAT 2005 100 0 0 0 0 0 0 0 2 29 6 0 0
wet NAT 2006 100 0 0 0 0 0 0 0 3 21 2 0 0
wet NAT 2007 100 0 0 0 0 0 0 0 1 7 2 0 0
wet NAT 2008 100 0 0 0 0 0 0 0 1 7 0 0 0
wet NAT 2009 100 0 0 0 0 0 0 0 0 0 1 0 0
wet NAT 2010 100 0 0 0 0 1 0 0 0 4 2 0 0
wet NAT 2011 400 0 0 0 0 0 0 0 5 81 39 0 0
wet NAT 2012 400 0 0 0 0 1 0 0 7 52 30 0 0
wet NAT 2013 400 0 0 0 0 0 0 0 0 2 0 1 0
