event_type scenario year n_sims january february march april may june july august september october november december
hot ALL 1982 50 0 0 0 0 0 0 7 0 0 0 0 0
hot ALL 1983 50 0 0 0 0 0 0 7 0 0 0 0 0
hot ALL 1984 50 0 0 0 0 0 0 3 0 0 0 0 0
hot ALL 1985 50 0 0 0 0 0 1 6 0 0 0 0 0
hot ALL 1986 50 0 0 0 0 0 0 4 0 0 0 0 0
hot ALL 1987 50 0 0 0 0 0 0 0 0 0 0 0 0
hot ALL 1988 50 0 0 0 0 0 0 5 0 0 0 0 0
hot ALL 1989 50 0 0 0 0 0 0 8 0 0 0 0 0
hot ALL 1990 50 0 0 0 0 0 0 6 0 0 0 0 0
hot ALL 1991 50 0 0 0 0 0 0 1 0 0 0 0 0
hot ALL 1992 50 0 0 0 0 0 0 6 0 0 0 0 0
hot ALL 1993 50 0 0 0 0 0 0 9 0 0 0 0 0
hot ALL 1994 50 0 0 0 0 0 0 7 0 0 0 0 0
hot ALL 1995 50 0 0 0 0 0 0 9 0 0 0 0 0
hot ALL 1996 50 0 0 0 0 0 0 7 0 0 0 0 0
hot ALL 1997 100 0 0 0 0 0 0 11 0 0 0 0 0
hot ALL 1998 100 0 0 0 0 0 0 12 0 0 0 0 0
hot ALL 1999 100 0 0 0 0 0 0 12 0 0 0 0 0
hot ALL 2000 100 0 0 0 0 0 1 9 0 0 0 0 0
hot ALL 2001 100 0 0 0 0 0 2 17 0 0 0 0 0
hot ALL 2002 100 0 0 0 0 0 1 20 0 0 0 0 0
hot ALL 2003 100 0 0 0 0 0 6 19 0 0 0 0 0
hot ALL 2004 100 0 0 0 0 0 0 13 0 0 0 0 0
hot ALL 2005 100 0 0 0 0 0 1 17 0 0 0 0 0
hot ALL 2006 100 0 0 0 0 0 0 16 0 0 0 0 0
hot ALL 2007 100 0 0 0 0 0 2 18 0 0 0 0 0
hot ALL 2008 100 0 0 0 0 0 3 16 0 0 0 0 0
hot ALL 2009 100 0 0 0 0 0 0 13 0 0 0 0 0
hot ALL 2010 100 0 0 0 0 0 2 21 0 0 0 0 0
hot ALL 2011 400 0 0 0 0 0 4 55 0 0 0 0 0
hot ALL 2012 400 0 0 0 0 0 2 74 0 0 0 0 0
hot ALL 2013 400 0 0 0 0 0 9 95 0 0 0 0 0
hot NAT 1982 50 0 0 0 0 0 0 5 0 0 0 0 0
hot NAT 1983 50 0 0 0 0 0 0 6 0 0 0 0 0
hot NAT 1984 50 0 0 0 0 0 1 0 0 0 0 0 0
hot NAT 1985 50 0 0 0 0 0 0 3 0 0 0 0 0
hot NAT 1986 50 0 0 0 0 0 0 9 0 0 0 0 0
hot NAT 1987 50 0 0 0 0 0 0 4 0 0 0 0 0
hot NAT 1988 50 0 0 0 0 0 0 6 0 0 0 0 0
hot NAT 1989 50 0 0 0 0 0 0 4 0 0 0 0 0
hot NAT 1990 50 0 0 0 0 0 0 4 0 0 0 0 0
hot NAT 1991 50 0 0 0 0 0 0 6 0 0 0 0 0
hot NAT 1992 50 0 0 0 0 0 1 4 0 0 0 0 0
hot NAT 1993 50 0 0 0 0 0 0 3 0 0 0 0 0
hot NAT 1994 50 0 0 0 0 0 0 5 0 0 0 0 0
hot NAT 1995 50 0 0 0 0 0 0 7 0 0 0 0 0
hot NAT 1996 50 0 0 0 0 0 0 2 0 0 0 0 0
hot NAT 1997 100 0 0 0 0 0 0 11 0 0 0 0 0
hot NAT 1998 100 0 0 0 0 0 0 11 0 0 0 0 0
hot NAT 1999 100 0 0 0 0 0 1 12 0 0 0 0 0
hot NAT 2000 100 0 0 0 0 0 0 12 0 0 0 0 0
hot NAT 2001 100 0 0 0 0 0 0 4 0 0 0 0 0
hot NAT 2002 100 0 0 0 0 0 1 16 0 0 0 0 0
hot NAT 2003 100 0 0 0 0 0 0 15 0 0 0 0 0
hot NAT 2004 100 0 0 0 0 0 1 6 0 0 0 0 0
hot NAT 2005 100 0 0 0 0 0 0 8 0 0 0 0 0
hot NAT 2006 100 0 0 0 0 0 0 14 0 0 0 0 0
hot NAT 2007 100 0 0 0 0 0 1 8 0 0 0 0 0
hot NAT 2008 100 0 0 0 0 0 1 9 0 0 0 0 0
hot NAT 2009 100 0 0 0 0 0 0 8 0 0 0 0 0
hot NAT 2010 100 0 0 0 0 0 0 8 0 0 0 0 0
hot NAT 2011 400 0 0 0 0 0 0 26 0 0 0 0 0
hot NAT 2012 400 0 0 0 0 0 1 37 0 0 0 0 0
hot NAT 2013 400 0 0 0 0 0 3 32 0 0 0 0 0
cold ALL 1982 50 3 0 0 0 0 0 0 0 0 0 0 2
cold ALL 1983 50 4 0 0 0 0 0 0 0 0 0 0 2
cold ALL 1984 50 5 0 0 0 0 0 0 0 0 0 0 2
cold ALL 1985 50 13 0 0 0 0 0 0 0 0 0 0 0
cold ALL 1986 50 3 0 0 0 0 0 0 0 0 0 0 1
cold ALL 1987 50 6 0 0 0 0 0 0 0 0 0 0 1
cold ALL 1988 50 7 1 0 0 0 0 0 0 0 0 0 0
cold ALL 1989 50 4 0 0 0 0 0 0 0 0 0 0 2
cold ALL 1990 50 3 0 0 0 0 0 0 0 0 0 0 1
cold ALL 1991 50 4 0 0 0 0 0 0 0 0 0 0 0
cold ALL 1992 50 5 1 0 0 0 0 0 0 0 0 0 3
cold ALL 1993 50 6 0 0 0 0 0 0 0 0 0 0 2
cold ALL 1994 50 4 0 0 0 0 0 0 0 0 0 0 1
cold ALL 1995 50 5 0 0 0 0 0 0 0 0 0 0 1
cold ALL 1996 50 0 0 0 0 0 0 0 0 0 0 0 0
cold ALL 1997 100 6 0 0 0 0 0 0 0 0 0 0 6
cold ALL 1998 100 11 1 0 0 0 0 0 0 0 0 0 5
cold ALL 1999 100 10 0 0 0 0 0 0 0 0 0 0 5
cold ALL 2000 100 8 0 0 0 0 0 0 0 0 0 0 2
cold ALL 2001 100 3 0 0 0 0 0 0 0 0 0 0 8
cold ALL 2002 100 5 1 0 0 0 0 0 0 0 0 0 1
cold ALL 2003 100 8 1 0 0 0 0 0 0 0 0 0 3
cold ALL 2004 100 8 0 0 0 0 0 0 0 0 0 0 1
cold ALL 2005 100 2 0 0 0 0 0 0 0 0 0 0 0
cold ALL 2006 100 2 0 0 0 0 0 0 0 0 0 0 0
cold ALL 2007 100 0 0 0 0 0 0 0 0 0 0 0 0
cold ALL 2008 100 4 0 0 0 0 0 0 0 0 0 0 1
cold ALL 2009 100 3 0 0 0 0 0 0 0 0 0 0 2
cold ALL 2010 100 8 0 0 0 0 0 0 0 0 0 0 1
cold ALL 2011 400 12 0 0 0 0 0 0 0 0 0 0 2
cold ALL 2012 400 7 0 0 0 0 0 0 0 0 0 0 1
cold ALL 2013 400 4 0 0 0 0 0 0 0 0 0 0 0
cold NAT 1982 50 29 4 0 0 0 0 0 0 0 0 0 13
cold NAT 1983 50 22 0 0 0 0 0 0 0 0 0 0 17
cold NAT 1984 50 28 3 0 0 0 0 0 0 0 0 0 21
cold NAT 1985 50 28 3 0 0 0 0 0 0 0 0 0 20
cold NAT 1986 50 23 2 0 0 0 0 0 0 0 0 0 19
cold NAT 1987 50 27 3 0 0 0 0 0 0 0 0 0 16
cold NAT 1988 50 34 6 0 0 0 0 0 0 0 0 0 15
cold NAT 1989 50 18 1 0 0 0 0 0 0 0 0 0 17
cold NAT 1990 50 25 3 0 0 0 0 0 0 0 0 0 16
cold NAT 1991 50 24 2 0 0 0 0 0 0 0 0 0 16
cold NAT 1992 50 29 5 0 0 0 0 0 0 0 0 0 23
cold NAT 1993 50 28 5 0 0 0 0 0 0 0 0 0 22
cold NAT 1994 50 32 4 0 0 0 0 0 0 0 0 0 22
cold NAT 1995 50 28 3 0 0 0 0 0 0 0 0 0 18
cold NAT 1996 50 28 2 0 0 0 0 0 0 0 0 0 13
cold NAT 1997 100 37 2 0 0 0 0 0 0 0 0 0 46
cold NAT 1998 100 59 10 0 0 0 0 0 0 0 0 0 37
cold NAT 1999 100 53 6 0 0 0 0 0 0 0 0 0 39
cold NAT 2000 100 58 13 0 0 0 0 0 0 0 0 0 41
cold NAT 2001 100 55 6 0 0 0 0 0 0 0 0 0 44
cold NAT 2002 100 50 5 0 0 0 0 0 0 0 0 0 52
cold NAT 2003 100 63 10 0 0 0 0 0 0 0 0 0 44
cold NAT 2004 100 51 9 0 0 0 0 0 0 0 0 0 35
cold NAT 2005 100 49 11 0 0 0 0 0 0 0 0 0 32
cold NAT 2006 100 56 11 0 0 0 0 0 0 0 0 0 34
cold NAT 2007 100 54 13 0 0 0 0 0 0 0 0 0 43
cold NAT 2008 100 59 10 0 0 0 0 0 0 0 0 0 32
cold NAT 2009 100 52 7 0 0 0 0 0 0 0 0 0 41
cold NAT 2010 100 64 5 0 0 0 0 0 0 0 0 0 36
cold NAT 2011 400 241 41 0 0 0 0 0 0 0 0 1 156
cold NAT 2012 400 203 16 0 0 0 0 0 0 0 0 0 167
cold NAT 2013 400 252 36 0 0 0 0 0 0 0 0 0 158
wet ALL 1982 50 0 0 0 0 0 0 1 0 0 0 0 0
wet ALL 1983 50 0 0 0 0 0 0 3 0 0 0 0 0
wet ALL 1984 50 0 0 0 0 0 0 10 1 0 0 0 0
wet ALL 1985 50 0 0 0 0 0 0 3 0 0 0 0 0
wet ALL 1986 50 0 0 0 0 0 0 3 1 0 0 0 0
wet ALL 1987 50 0 0 0 0 0 0 1 0 0 0 0 0
wet ALL 1988 50 0 0 0 0 0 0 6 0 0 0 0 0
wet ALL 1989 50 0 0 0 0 0 0 3 0 0 0 0 0
wet ALL 1990 50 0 0 0 0 0 0 8 2 0 0 0 0
wet ALL 1991 50 0 0 0 0 0 0 3 0 0 0 0 0
wet ALL 1992 50 0 0 0 0 0 0 3 3 0 0 0 0
wet ALL 1993 50 0 0 0 0 0 0 3 2 0 0 0 0
wet ALL 1994 50 0 0 0 0 0 0 4 0 0 0 0 0
wet ALL 1995 50 0 0 0 0 0 1 2 1 0 0 0 0
wet ALL 1996 50 0 0 0 0 0 0 3 2 0 0 0 0
wet ALL 1997 100 0 0 0 0 0 0 4 1 0 0 0 0
wet ALL 1998 100 0 0 0 0 0 1 10 2 0 0 0 0
wet ALL 1999 100 0 0 0 0 0 0 12 4 0 0 0 0
wet ALL 2000 100 0 0 0 0 0 1 6 1 0 0 0 0
wet ALL 2001 100 0 0 0 0 0 0 7 4 0 0 0 0
wet ALL 2002 100 0 0 0 0 0 0 6 0 0 0 0 0
wet ALL 2003 100 0 0 0 0 0 0 9 1 0 0 0 0
wet ALL 2004 100 0 0 0 0 0 0 9 3 0 0 0 0
wet ALL 2005 100 0 0 0 0 0 0 7 3 0 0 0 0
wet ALL 2006 100 0 0 0 0 0 0 7 4 0 0 0 0
wet ALL 2007 100 0 0 0 0 0 0 7 4 0 0 0 0
wet ALL 2008 100 0 0 0 0 0 1 15 1 0 0 0 0
wet ALL 2009 100 0 0 0 0 0 0 9 5 0 0 0 0
wet ALL 2010 100 0 0 0 0 0 0 7 1 0 0 0 0
wet ALL 2011 400 0 0 0 0 0 2 45 10 0 0 0 0
wet ALL 2012 400 0 0 0 0 0 3 39 20 0 0 0 0
wet ALL 2013 400 0 0 0 0 0 2 47 16 0 0 0 0
wet NAT 1982 50 0 0 0 0 0 0 9 1 0 0 0 0
wet NAT 1983 50 0 0 0 0 0 0 9 1 0 0 0 0
wet NAT 1984 50 0 0 0 0 0 0 8 1 0 0 0 0
wet NAT 1985 50 0 0 0 0 0 1 10 1 0 0 0 0
wet NAT 1986 50 0 0 0 0 0 0 10 0 0 0 0 0
wet NAT 1987 50 0 0 0 0 0 1 6 0 0 0 0 0
wet NAT 1988 50 0 0 0 0 0 0 6 3 0 0 0 0
wet NAT 1989 50 0 0 0 0 0 0 12 4 0 0 0 0
wet NAT 1990 50 0 0 0 0 0 0 9 2 0 0 0 0
wet NAT 1991 50 0 0 0 0 0 0 7 5 0 0 0 0
wet NAT 1992 50 0 0 0 0 0 0 7 1 0 0 0 0
wet NAT 1993 50 0 0 0 0 0 0 7 1 0 0 0 0
wet NAT 1994 50 0 0 0 0 0 0 6 2 0 0 0 0
wet NAT 1995 50 0 0 0 0 0 0 10 3 0 0 0 0
wet NAT 1996 50 0 0 0 0 0 0 11 3 0 0 0 0
wet NAT 1997 100 0 0 0 0 0 0 24 3 0 0 0 0
wet NAT 1998 100 0 0 0 0 0 0 17 5 0 0 0 0
wet NAT 1999 100 0 0 0 0 0 0 16 2 0 0 0 0
wet NAT 2000 100 0 0 0 0 0 0 13 3 0 0 0 0
wet NAT 2001 100 0 0 0 0 0 0 13 4 0 0 0 0
wet NAT 2002 100 0 0 0 0 0 0 12 2 0 0 0 0
wet NAT 2003 100 0 0 0 0 0 0 14 3 0 0 0 0
wet NAT 2004 100 0 0 0 0 0 0 21 0 0 0 0 0
wet NAT 2005 100 0 0 0 0 0 0 17 3 0 0 0 0
wet NAT 2006 100 0 0 0 0 0 0 15 4 0 0 0 0
wet NAT 2007 100 0 0 0 0 0 0 23 3 0 0 0 0
wet NAT 2008 100 0 0 0 0 0 0 17 0 0 0 0 0
wet NAT 2009 100 0 0 0 0 0 0 16 1 0 0 0 0
wet NAT 2010 100 0 0 0 0 0 0 20 0 0 0 0 0
wet NAT 2011 400 0 0 0 0 0 2 63 12 0 0 0 0
wet NAT 2012 400 0 0 0 0 0 1 67 15 0 0 0 0
wet NAT 2013 400 0 0 0 0 0 1 69 14 0 0 0 0
