event_type scenario year n_sims january february march april may june july august september october november december
hot ALL 1982 50 0 0 0 0 0 0 8 0 0 0 0 0
hot ALL 1983 50 0 0 0 0 0 0 2 0 0 0 0 0
hot ALL 1984 50 0 0 0 0 0 0 4 0 0 0 0 0
hot ALL 1985 50 0 0 0 0 0 0 9 0 0 0 0 0
hot ALL 1986 50 0 0 0 0 0 0 6 0 0 0 0 0
hot ALL 1987 50 0 0 0 0 0 0 2 0 0 0 0 0
hot ALL 1988 50 0 0 0 0 0 0 4 0 0 0 0 0
hot ALL 1989 50 0 0 0 0 0 0 6 0 0 0 0 0
hot ALL 1990 50 0 0 0 0 0 0 5 0 0 0 0 0
hot ALL 1991 50 0 0 0 0 0 0 2 0 0 0 0 0
hot ALL 1992 50 0 0 0 0 0 0 0 0 0 0 0 0
hot ALL 1993 50 0 0 0 0 0 0 1 0 0 0 0 0
hot ALL 1994 50 0 0 0 0 0 0 3 0 0 0 0 0
hot ALL 1995 50 0 0 0 0 0 0 1 0 0 0 0 0
hot ALL 1996 50 0 0 0 0 0 0 4 0 0 0 0 0
hot ALL 1997 100 0 0 0 0 0 0 8 1 0 0 0 0
hot ALL 1998 100 0 0 0 0 0 0 23 0 0 0 0 0
hot ALL 1999 100 0 0 0 0 0 0 22 1 0 0 0 0
hot ALL 2000 100 0 0 0 0 0 0 18 0 0 0 0 0
hot ALL 2001 100 0 0 0 0 0 0 4 0 0 0 0 0
hot ALL 2002 100 0 0 0 0 0 0 11 0 0 0 0 0
hot ALL 2003 100 0 0 0 0 0 0 16 0 0 0 0 0
hot ALL 2004 100 0 0 0 0 0 0 26 0 0 0 0 0
hot ALL 2005 100 0 0 0 0 0 0 17 0 0 0 0 0
hot ALL 2006 100 0 0 0 0 0 0 16 0 0 0 0 0
hot ALL 2007 100 0 0 0 0 0 0 18 1 0 0 0 0
hot ALL 2008 100 0 0 0 0 0 0 36 0 0 0 0 0
hot ALL 2009 100 0 0 0 0 0 0 16 0 0 0 0 0
hot ALL 2010 100 0 0 0 0 0 1 28 0 0 0 0 0
hot ALL 2011 400 0 0 0 0 0 0 107 1 0 0 0 0
hot ALL 2012 400 0 0 0 0 0 1 77 0 0 0 0 0
hot ALL 2013 400 0 0 0 0 0 0 118 0 0 0 0 0
hot NAT 1982 50 0 0 0 0 0 0 4 0 0 0 0 0
hot NAT 1983 50 0 0 0 0 0 0 5 0 0 0 0 0
hot NAT 1984 50 0 0 0 0 0 0 8 0 0 0 0 0
hot NAT 1985 50 0 0 0 0 0 0 3 0 0 0 0 0
hot NAT 1986 50 0 0 0 0 0 0 2 0 0 0 0 0
hot NAT 1987 50 0 0 0 0 0 0 1 0 0 0 0 0
hot NAT 1988 50 0 0 0 0 0 0 10 0 0 0 0 0
hot NAT 1989 50 0 0 0 0 0 0 3 0 0 0 0 0
hot NAT 1990 50 0 0 0 0 0 0 9 0 0 0 0 0
hot NAT 1991 50 0 0 0 0 0 0 2 0 0 0 0 0
hot NAT 1992 50 0 0 0 0 0 0 3 0 0 0 0 0
hot NAT 1993 50 0 0 0 0 0 0 3 0 0 0 0 0
hot NAT 1994 50 0 0 0 0 0 0 5 0 0 0 0 0
hot NAT 1995 50 0 0 0 0 0 0 4 0 0 0 0 0
hot NAT 1996 50 0 0 0 0 0 0 7 0 0 0 0 0
hot NAT 1997 100 0 0 0 0 0 0 6 0 0 0 0 0
hot NAT 1998 100 0 0 0 0 0 0 22 0 0 0 0 0
hot NAT 1999 100 0 0 0 0 0 0 22 0 0 0 0 0
hot NAT 2000 100 0 0 0 0 0 0 13 1 0 0 0 0
hot NAT 2001 100 0 0 0 0 0 0 6 0 0 0 0 0
hot NAT 2002 100 0 0 0 0 0 0 3 0 0 0 0 0
hot NAT 2003 100 0 0 0 0 0 0 8 0 0 0 0 0
hot NAT 2004 100 0 0 0 0 0 0 14 0 0 0 0 0
hot NAT 2005 100 0 0 0 0 0 0 9 0 0 0 0 0
hot NAT 2006 100 0 0 0 0 0 0 7 0 0 0 0 0
hot NAT 2007 100 0 0 0 0 0 0 13 0 0 0 0 0
hot NAT 2008 100 0 0 0 0 0 0 11 0 0 0 0 0
hot NAT 2009 100 0 0 0 0 0 0 10 0 0 0 0 0
hot NAT 2010 100 0 0 0 0 0 0 13 0 0 0 0 0
hot NAT 2011 400 0 0 0 0 0 0 55 2 0 0 0 0
hot NAT 2012 400 0 0 0 0 0 0 41 0 0 0 0 0
hot NAT 2013 400 0 0 0 0 0 0 35 0 0 0 0 0
cold ALL 1982 50 8 0 0 0 0 0 0 0 0 0 0 2
cold ALL 1983 50 7 0 0 0 0 0 0 0 0 0 0 0
cold ALL 1984 50 6 0 0 0 0 0 0 0 0 0 0 1
cold ALL 1985 50 12 0 0 0 0 0 0 0 0 0 0 1
cold ALL 1986 50 7 0 0 0 0 0 0 0 0 0 0 1
cold ALL 1987 50 9 0 0 0 0 0 0 0 0 0 0 1
cold ALL 1988 50 5 0 0 0 0 0 0 0 0 0 0 0
cold ALL 1989 50 1 0 0 0 0 0 0 0 0 0 0 1
cold ALL 1990 50 8 0 0 0 0 0 0 0 0 0 0 0
cold ALL 1991 50 2 0 0 0 0 0 0 0 0 0 0 0
cold ALL 1992 50 1 0 0 0 0 0 0 0 0 0 0 1
cold ALL 1993 50 3 0 0 0 0 0 0 0 0 0 0 1
cold ALL 1994 50 9 0 0 0 0 0 0 0 0 0 0 1
cold ALL 1995 50 8 0 0 0 0 0 0 0 0 0 0 1
cold ALL 1996 50 1 0 0 0 0 0 0 0 0 0 0 0
cold ALL 1997 100 2 0 0 0 0 0 0 0 0 0 0 2
cold ALL 1998 100 18 0 0 0 0 0 0 0 0 0 0 1
cold ALL 1999 100 8 0 0 0 0 0 0 0 0 0 0 0
cold ALL 2000 100 3 0 0 0 0 0 0 0 0 0 0 1
cold ALL 2001 100 10 0 0 0 0 0 0 0 0 0 0 0
cold ALL 2002 100 6 0 0 0 0 0 0 0 0 0 0 0
cold ALL 2003 100 8 0 0 0 0 0 0 0 0 0 0 2
cold ALL 2004 100 4 0 0 0 0 0 0 0 0 0 0 1
cold ALL 2005 100 5 0 0 0 0 0 0 0 0 0 0 0
cold ALL 2006 100 1 0 0 0 0 0 0 0 0 0 0 2
cold ALL 2007 100 4 0 0 0 0 0 0 0 0 0 0 0
cold ALL 2008 100 7 0 0 0 0 0 0 0 0 0 0 0
cold ALL 2009 100 2 0 0 0 0 0 0 0 0 0 0 0
cold ALL 2010 100 6 0 0 0 0 0 0 0 0 0 0 1
cold ALL 2011 400 14 0 0 0 0 0 0 0 0 0 0 2
cold ALL 2012 400 15 0 0 0 0 0 0 0 0 0 0 0
cold ALL 2013 400 25 0 0 0 0 0 0 0 0 0 0 3
cold NAT 1982 50 30 0 0 0 0 0 0 0 0 0 0 18
cold NAT 1983 50 30 0 0 0 0 0 0 0 0 0 0 7
cold NAT 1984 50 25 0 0 0 0 0 0 0 0 0 0 12
cold NAT 1985 50 21 0 0 0 0 0 0 0 0 0 0 13
cold NAT 1986 50 23 0 0 0 0 0 0 0 0 0 0 11
cold NAT 1987 50 31 2 0 0 0 0 0 0 0 0 0 16
cold NAT 1988 50 31 0 0 0 0 0 0 0 0 0 0 7
cold NAT 1989 50 18 0 0 0 0 0 0 0 0 0 0 13
cold NAT 1990 50 25 1 0 0 0 0 0 0 0 0 0 10
cold NAT 1991 50 21 1 0 0 0 0 0 0 0 0 0 16
cold NAT 1992 50 32 2 0 0 0 0 0 0 0 0 0 16
cold NAT 1993 50 31 1 0 0 0 0 0 0 0 0 0 21
cold NAT 1994 50 28 1 0 0 0 0 0 0 0 0 0 16
cold NAT 1995 50 25 0 0 0 0 0 0 0 0 0 0 17
cold NAT 1996 50 29 2 0 0 0 0 0 0 0 0 0 10
cold NAT 1997 100 42 1 0 0 0 0 0 0 0 0 0 35
cold NAT 1998 100 71 1 0 0 0 0 0 0 0 0 0 21
cold NAT 1999 100 43 0 0 0 0 0 0 0 0 0 0 38
cold NAT 2000 100 51 4 0 0 0 0 0 0 0 0 0 34
cold NAT 2001 100 59 3 0 0 0 0 0 0 0 0 0 42
cold NAT 2002 100 45 3 0 0 0 0 0 0 0 0 0 43
cold NAT 2003 100 72 5 0 0 0 0 0 0 0 0 0 31
cold NAT 2004 100 52 1 0 0 0 0 0 0 0 0 0 35
cold NAT 2005 100 57 3 0 0 0 0 0 0 0 0 0 23
cold NAT 2006 100 65 2 0 0 0 0 0 0 0 0 0 40
cold NAT 2007 100 64 3 0 0 0 0 0 0 0 0 0 22
cold NAT 2008 100 61 1 0 0 0 0 0 0 0 0 0 23
cold NAT 2009 100 55 1 0 0 0 0 0 0 0 0 0 31
cold NAT 2010 100 69 1 0 0 0 0 0 0 0 0 0 22
cold NAT 2011 400 231 9 0 0 0 0 0 0 0 0 0 113
cold NAT 2012 400 203 3 0 0 0 0 0 0 0 0 0 133
cold NAT 2013 400 268 17 0 0 0 0 0 0 0 0 0 135
wet ALL 1982 50 0 0 0 0 0 0 5 1 0 0 0 0
wet ALL 1983 50 0 0 0 0 0 0 3 2 1 0 0 0
wet ALL 1984 50 0 0 0 0 0 0 1 0 0 0 0 0
wet ALL 1985 50 0 0 0 0 0 0 0 0 0 0 0 0
wet ALL 1986 50 0 0 0 0 0 0 3 6 0 0 0 0
wet ALL 1987 50 0 0 0 0 0 0 1 0 0 0 0 0
wet ALL 1988 50 0 0 0 0 0 1 3 0 1 0 0 0
wet ALL 1989 50 0 0 0 0 0 0 2 1 0 0 0 0
wet ALL 1990 50 0 0 0 0 0 0 2 3 0 0 0 0
wet ALL 1991 50 0 0 0 0 0 0 2 4 0 0 0 0
wet ALL 1992 50 0 0 0 0 0 0 3 0 0 0 0 0
wet ALL 1993 50 0 0 0 0 0 0 2 1 0 0 0 0
wet ALL 1994 50 0 0 0 0 0 0 2 3 1 0 0 0
wet ALL 1995 50 0 0 0 0 0 0 2 1 0 0 0 0
wet ALL 1996 50 0 0 0 0 0 0 2 3 0 0 0 0
wet ALL 1997 100 0 0 0 0 0 0 5 7 0 0 0 0
wet ALL 1998 100 0 0 0 0 0 0 4 5 0 0 0 0
wet ALL 1999 100 0 0 0 0 0 1 8 4 0 0 0 0
wet ALL 2000 100 0 0 0 0 0 0 5 6 0 0 0 0
wet ALL 2001 100 0 0 0 0 0 0 0 7 1 0 0 0
wet ALL 2002 100 0 0 0 0 0 1 6 7 1 0 0 0
wet ALL 2003 100 0 0 0 0 0 0 8 5 0 0 0 0
wet ALL 2004 100 0 0 0 0 0 0 6 2 0 0 0 0
wet ALL 2005 100 0 0 0 0 0 0 4 4 0 0 0 0
wet ALL 2006 100 0 0 0 0 0 0 3 8 2 0 0 0
wet ALL 2007 100 0 0 0 0 0 1 10 3 0 0 0 0
wet ALL 2008 100 0 0 0 0 0 0 3 8 1 0 0 0
wet ALL 2009 100 0 0 0 0 0 0 2 3 0 0 0 0
wet ALL 2010 100 0 0 0 0 0 0 10 6 0 0 0 0
wet ALL 2011 400 0 0 0 0 0 0 23 21 2 0 0 0
wet ALL 2012 400 0 0 0 0 0 1 22 19 1 0 0 0
wet ALL 2013 400 0 0 0 0 0 0 20 36 2 0 0 0
wet NAT 1982 50 0 0 0 0 0 0 3 7 0 0 0 0
wet NAT 1983 50 0 0 0 0 0 1 4 6 0 0 0 0
wet NAT 1984 50 0 0 0 0 0 0 3 4 0 0 0 0
wet NAT 1985 50 0 0 0 0 0 0 4 1 0 0 0 0
wet NAT 1986 50 0 0 0 0 0 0 7 5 0 0 0 0
wet NAT 1987 50 0 0 0 0 0 0 7 5 1 0 0 0
wet NAT 1988 50 0 0 0 0 0 0 4 7 0 0 0 0
wet NAT 1989 50 0 0 0 0 0 0 4 7 0 0 0 0
wet NAT 1990 50 0 0 0 0 0 0 4 6 0 0 0 0
wet NAT 1991 50 0 0 0 0 0 0 2 5 0 0 0 0
wet NAT 1992 50 0 0 0 0 0 0 2 7 1 0 0 0
wet NAT 1993 50 0 0 0 0 0 0 3 3 0 0 0 0
wet NAT 1994 50 0 0 0 0 0 0 4 5 1 0 0 0
wet NAT 1995 50 0 0 0 0 0 0 5 9 0 0 0 0
wet NAT 1996 50 0 0 0 0 0 0 8 5 0 0 0 0
wet NAT 1997 100 0 0 0 0 0 2 9 14 0 0 0 0
wet NAT 1998 100 0 0 0 0 0 1 7 10 0 0 0 0
wet NAT 1999 100 0 0 0 0 0 0 10 2 0 0 0 0
wet NAT 2000 100 0 0 0 0 0 0 14 6 0 0 0 0
wet NAT 2001 100 0 0 0 0 0 1 10 10 0 0 0 0
wet NAT 2002 100 0 0 0 0 0 0 8 6 0 0 0 0
wet NAT 2003 100 0 0 0 0 0 0 13 4 0 0 0 0
wet NAT 2004 100 0 0 0 0 0 0 20 10 0 0 0 0
wet NAT 2005 100 0 0 0 0 0 0 11 9 0 0 0 0
wet NAT 2006 100 0 0 0 0 0 0 14 7 0 0 0 0
wet NAT 2007 100 0 0 0 0 0 1 12 5 1 0 0 0
wet NAT 2008 100 0 0 0 0 0 0 3 10 0 0 0 0
wet NAT 2009 100 0 0 0 0 0 0 8 10 0 0 0 0
wet NAT 2010 100 0 0 0 0 0 0 11 9 1 0 0 0
wet NAT 2011 400 0 0 0 0 0 1 41 24 1 0 0 0
wet NAT 2012 400 0 0 0 0 0 0 38 24 1 0 0 0
wet NAT 2013 400 0 0 0 0 0 0 37 42 0 0 0 0
