event_type scenario year n_sims january february march april may june july august september october november december
hot ALL 1982 50 0 0 0 0 0 0 0 0 1 17 0 0
hot ALL 1983 50 3 23 22 0 0 0 0 0 4 34 0 0
hot ALL 1984 50 0 0 0 0 0 0 0 0 1 25 0 0
hot ALL 1985 50 0 0 0 0 0 0 0 0 1 10 0 0
hot ALL 1986 50 0 0 0 0 0 0 0 0 1 12 1 0
hot ALL 1987 50 0 6 0 0 0 0 0 0 46 50 33 2
hot ALL 1988 50 0 1 3 0 0 0 0 0 5 43 4 0
hot ALL 1989 50 0 0 0 0 0 0 0 0 9 42 12 0
hot ALL 1990 50 0 2 0 0 0 0 0 0 11 46 18 1
hot ALL 1991 50 0 2 0 0 0 0 0 0 9 26 2 0
hot ALL 1992 50 0 15 9 0 0 0 0 0 0 31 3 0
hot ALL 1993 50 0 0 0 0 0 0 0 0 0 42 5 0
hot ALL 1994 50 0 0 0 0 0 0 0 0 23 44 6 0
hot ALL 1995 50 2 6 0 0 0 0 0 0 16 48 10 0
hot ALL 1996 50 0 0 0 0 0 0 0 0 18 50 6 0
hot ALL 1997 100 0 1 0 0 0 0 0 0 72 97 36 15
hot ALL 1998 100 25 73 63 12 0 0 0 0 97 100 82 1
hot ALL 1999 100 0 2 0 0 0 0 0 0 18 95 32 0
hot ALL 2000 100 0 2 0 0 0 0 0 0 9 98 35 1
hot ALL 2001 100 0 1 2 0 0 0 0 0 21 99 43 0
hot ALL 2002 100 11 28 8 0 0 0 0 0 55 98 46 6
hot ALL 2003 100 8 26 14 2 0 0 0 0 97 100 82 4
hot ALL 2004 100 2 5 3 0 0 0 0 0 85 98 67 3
hot ALL 2005 100 9 30 56 3 0 0 0 0 93 100 70 1
hot ALL 2006 100 0 13 4 0 0 0 0 0 90 99 34 11
hot ALL 2007 100 8 24 0 0 0 0 0 0 46 82 12 0
hot ALL 2008 100 0 3 0 0 0 0 0 0 75 100 64 1
hot ALL 2009 100 0 6 4 0 0 0 0 0 93 100 52 5
hot ALL 2010 100 20 60 57 11 0 0 0 0 96 99 84 2
hot ALL 2011 400 1 12 7 0 0 0 0 0 299 386 180 4
hot ALL 2012 400 2 9 21 0 0 0 0 0 379 400 225 5
hot ALL 2013 400 5 65 80 4 0 0 0 0 345 400 218 9
hot NAT 1982 50 0 0 0 0 0 0 0 0 0 1 0 0
hot NAT 1983 50 0 4 0 0 0 0 0 0 0 5 0 0
hot NAT 1984 50 0 0 0 0 0 0 0 0 0 0 0 0
hot NAT 1985 50 0 0 0 0 0 0 0 0 0 0 0 0
hot NAT 1986 50 0 0 0 0 0 0 0 0 0 0 0 0
hot NAT 1987 50 0 0 0 0 0 0 0 0 4 24 1 0
hot NAT 1988 50 0 0 0 0 0 0 0 0 0 4 0 0
hot NAT 1989 50 0 0 0 0 0 0 0 0 0 3 0 0
hot NAT 1990 50 0 0 0 0 0 0 0 0 0 2 0 0
hot NAT 1991 50 0 0 0 0 0 0 0 0 0 1 0 0
hot NAT 1992 50 0 0 0 0 0 0 0 0 0 0 0 0
hot NAT 1993 50 0 0 0 0 0 0 0 0 0 0 0 0
hot NAT 1994 50 0 0 0 0 0 0 0 0 0 3 0 0
hot NAT 1995 50 0 0 0 0 0 0 0 0 0 3 0 0
hot NAT 1996 50 0 0 0 0 0 0 0 0 0 3 0 0
hot NAT 1997 100 0 0 0 0 0 0 0 0 0 11 0 0
hot NAT 1998 100 0 0 0 0 0 0 0 0 4 67 4 0
hot NAT 1999 100 0 0 0 0 0 0 0 0 0 1 0 0
hot NAT 2000 100 0 0 0 0 0 0 0 0 0 1 0 0
hot NAT 2001 100 0 0 0 0 0 0 0 0 0 9 0 0
hot NAT 2002 100 0 1 0 0 0 0 0 0 0 4 0 0
hot NAT 2003 100 0 0 0 0 0 0 0 0 0 17 1 0
hot NAT 2004 100 0 0 0 0 0 0 0 0 0 5 0 0
hot NAT 2005 100 0 0 0 0 0 0 0 0 0 8 0 0
hot NAT 2006 100 0 0 0 0 0 0 0 0 0 14 0 0
hot NAT 2007 100 0 0 0 0 0 0 0 0 0 0 0 0
hot NAT 2008 100 0 0 0 0 0 0 0 0 0 7 0 0
hot NAT 2009 100 0 0 0 0 0 0 0 0 0 2 1 0
hot NAT 2010 100 0 0 0 0 0 0 0 0 0 26 0 0
hot NAT 2011 400 0 0 0 0 0 0 0 0 0 0 0 0
hot NAT 2012 400 0 0 0 0 0 0 0 0 0 5 0 0
hot NAT 2013 400 0 0 0 0 0 0 0 0 0 13 0 0
cold ALL 1982 50 0 0 0 0 0 2 5 0 0 0 0 0
cold ALL 1983 50 0 0 0 0 0 1 8 0 0 0 0 0
cold ALL 1984 50 0 0 0 0 0 5 12 0 0 0 0 0
cold ALL 1985 50 0 0 0 0 0 9 12 0 0 0 0 0
cold ALL 1986 50 0 0 0 0 0 12 25 0 0 0 0 0
cold ALL 1987 50 0 0 0 0 0 0 0 0 0 0 0 0
cold ALL 1988 50 0 0 0 0 0 1 0 0 0 0 0 0
cold ALL 1989 50 0 0 0 0 0 1 4 0 0 0 0 0
cold ALL 1990 50 0 0 0 0 0 0 2 0 0 0 0 0
cold ALL 1991 50 0 0 0 0 0 1 0 0 0 0 0 0
cold ALL 1992 50 0 0 0 0 0 4 10 0 0 0 0 0
cold ALL 1993 50 0 0 0 0 0 0 2 0 0 0 0 0
cold ALL 1994 50 0 0 0 0 0 1 6 0 0 0 0 0
cold ALL 1995 50 0 0 0 0 0 0 1 0 0 0 0 0
cold ALL 1996 50 0 0 0 0 0 0 5 0 0 0 0 0
cold ALL 1997 100 0 0 0 0 0 6 1 0 0 0 0 0
cold ALL 1998 100 0 0 0 0 0 0 0 0 0 0 0 0
cold ALL 1999 100 0 0 0 0 0 0 1 0 0 0 0 0
cold ALL 2000 100 0 0 0 0 0 2 7 0 0 0 0 0
cold ALL 2001 100 0 0 0 0 0 4 4 0 0 0 0 0
cold ALL 2002 100 0 0 0 0 0 1 3 0 0 0 0 0
cold ALL 2003 100 0 0 0 0 0 2 1 0 0 0 0 0
cold ALL 2004 100 0 0 0 0 0 2 5 0 0 0 0 0
cold ALL 2005 100 0 0 0 0 0 0 0 0 0 0 0 0
cold ALL 2006 100 0 0 0 0 0 0 1 0 0 0 0 0
cold ALL 2007 100 0 0 0 0 0 0 1 0 0 0 0 0
cold ALL 2008 100 0 0 0 0 0 6 5 0 0 0 0 0
cold ALL 2009 100 0 0 0 0 0 0 0 0 0 0 0 0
cold ALL 2010 100 0 0 0 0 0 0 0 0 0 0 0 0
cold ALL 2011 400 0 0 0 0 0 2 4 0 0 0 0 0
cold ALL 2012 400 0 0 0 0 0 0 2 0 0 0 0 0
cold ALL 2013 400 0 0 0 0 0 1 1 0 0 0 0 0
cold NAT 1982 50 0 0 0 0 0 18 25 0 0 0 0 0
cold NAT 1983 50 0 0 0 0 0 16 33 0 0 0 0 0
cold NAT 1984 50 0 0 0 0 0 27 27 0 0 0 0 0
cold NAT 1985 50 0 0 0 0 0 42 42 0 0 0 0 0
cold NAT 1986 50 0 0 0 0 0 43 46 0 0 0 0 0
cold NAT 1987 50 0 0 0 0 0 7 6 0 0 0 0 0
cold NAT 1988 50 0 0 0 0 0 12 7 0 0 0 0 0
cold NAT 1989 50 0 0 0 0 0 31 28 0 0 0 0 0
cold NAT 1990 50 0 0 0 0 0 18 29 0 0 0 0 0
cold NAT 1991 50 0 0 0 0 0 13 22 0 0 0 0 0
cold NAT 1992 50 0 0 0 0 0 40 43 0 0 0 0 0
cold NAT 1993 50 0 0 0 0 0 20 19 0 0 0 0 0
cold NAT 1994 50 0 0 0 0 0 31 40 0 0 0 0 0
cold NAT 1995 50 0 0 0 0 0 23 27 0 0 0 0 0
cold NAT 1996 50 0 0 0 0 0 29 41 0 0 0 0 0
cold NAT 1997 100 0 0 0 0 0 73 52 0 0 0 0 0
cold NAT 1998 100 0 0 0 0 0 14 13 0 0 0 0 0
cold NAT 1999 100 0 0 0 0 0 32 64 0 0 0 0 0
cold NAT 2000 100 0 0 0 0 0 81 95 0 0 0 0 0
cold NAT 2001 100 0 0 0 0 0 86 89 0 0 0 0 0
cold NAT 2002 100 0 0 0 0 0 45 72 0 0 0 0 0
cold NAT 2003 100 0 0 0 0 0 78 48 0 0 0 0 0
cold NAT 2004 100 0 0 0 0 0 60 68 0 0 0 0 0
cold NAT 2005 100 0 0 0 0 0 73 54 0 0 0 0 0
cold NAT 2006 100 0 0 0 0 0 46 38 0 0 0 0 0
cold NAT 2007 100 0 0 0 0 0 77 74 0 0 0 0 0
cold NAT 2008 100 0 0 0 0 0 92 80 0 0 0 0 0
cold NAT 2009 100 0 0 0 0 0 55 38 0 0 0 0 0
cold NAT 2010 100 0 0 0 0 0 11 52 0 0 0 0 0
cold NAT 2011 400 0 0 0 0 0 265 255 0 0 0 0 0
cold NAT 2012 400 0 0 0 0 0 262 291 0 0 0 0 0
cold NAT 2013 400 0 0 0 0 0 310 329 0 0 0 0 0
wet ALL 1982 50 0 0 0 0 0 0 0 0 0 0 0 0
wet ALL 1983 50 1 1 0 0 0 0 0 0 0 0 0 0
wet ALL 1984 50 0 0 9 0 0 0 0 0 0 0 0 0
wet ALL 1985 50 0 0 0 0 0 0 0 0 0 0 0 0
wet ALL 1986 50 0 0 5 0 0 0 0 0 0 0 0 0
wet ALL 1987 50 0 0 0 0 0 0 0 0 0 0 0 0
wet ALL 1988 50 0 0 0 0 0 0 0 0 0 0 0 0
wet ALL 1989 50 0 0 0 0 0 0 0 0 0 0 1 0
wet ALL 1990 50 0 0 0 0 0 0 0 0 0 0 0 0
wet ALL 1991 50 0 0 1 0 0 0 0 0 0 0 0 0
wet ALL 1992 50 0 0 0 0 0 0 0 0 0 0 0 0
wet ALL 1993 50 0 0 1 0 0 0 0 0 0 0 0 0
wet ALL 1994 50 0 0 1 0 0 0 0 0 0 0 2 1
wet ALL 1995 50 0 1 34 0 0 0 0 0 0 0 0 0
wet ALL 1996 50 0 0 1 0 0 0 0 0 0 0 0 0
wet ALL 1997 100 0 0 1 0 0 0 0 0 0 0 3 5
wet ALL 1998 100 5 7 23 0 0 0 0 0 0 0 0 1
wet ALL 1999 100 0 0 5 0 0 0 0 0 0 0 0 2
wet ALL 2000 100 0 0 32 0 0 0 0 0 0 0 0 0
wet ALL 2001 100 0 1 5 0 0 0 0 0 0 0 0 0
wet ALL 2002 100 0 0 8 0 0 0 0 0 0 0 0 0
wet ALL 2003 100 0 0 11 0 0 0 0 0 0 0 2 5
wet ALL 2004 100 0 0 4 0 0 0 0 0 0 0 0 1
wet ALL 2005 100 0 1 0 0 0 0 0 0 0 0 1 0
wet ALL 2006 100 0 0 3 0 0 0 0 0 0 0 2 0
wet ALL 2007 100 1 0 26 0 0 0 0 0 0 0 1 0
wet ALL 2008 100 0 0 16 0 0 0 0 0 0 0 0 1
wet ALL 2009 100 0 0 0 0 0 0 0 0 0 0 1 0
wet ALL 2010 100 0 0 1 0 0 0 0 0 0 0 0 0
wet ALL 2011 400 1 1 10 1 0 0 0 0 0 0 0 0
wet ALL 2012 400 0 0 0 0 0 0 0 0 0 0 14 10
wet ALL 2013 400 0 0 0 0 0 0 0 0 0 0 1 0
wet NAT 1982 50 0 0 2 0 0 0 0 0 0 0 0 0
wet NAT 1983 50 0 1 0 0 0 0 0 0 0 0 0 0
wet NAT 1984 50 0 0 14 3 0 0 0 0 0 0 0 0
wet NAT 1985 50 0 0 0 0 0 0 0 0 0 0 1 0
wet NAT 1986 50 0 0 6 2 0 0 0 0 0 0 0 0
wet NAT 1987 50 0 0 0 0 0 0 0 0 0 0 0 1
wet NAT 1988 50 0 0 0 0 0 0 0 0 0 0 1 0
wet NAT 1989 50 0 0 0 0 0 0 0 0 0 0 0 0
wet NAT 1990 50 0 0 2 0 0 0 0 0 0 0 1 0
wet NAT 1991 50 0 0 0 0 0 0 0 0 0 0 0 0
wet NAT 1992 50 0 0 0 0 0 0 0 0 0 0 0 0
wet NAT 1993 50 0 0 1 0 0 0 0 0 0 0 1 0
wet NAT 1994 50 0 0 1 0 0 0 0 0 0 0 2 0
wet NAT 1995 50 0 0 28 0 0 0 0 0 0 0 0 0
wet NAT 1996 50 0 0 2 0 0 0 0 0 0 0 0 0
wet NAT 1997 100 0 0 0 0 0 0 0 0 0 0 3 1
wet NAT 1998 100 0 2 16 0 0 0 0 0 0 0 0 0
wet NAT 1999 100 0 0 4 2 0 0 0 0 0 0 0 1
wet NAT 2000 100 0 0 14 1 0 0 0 0 0 0 0 0
wet NAT 2001 100 0 0 4 0 0 0 0 0 0 0 0 0
wet NAT 2002 100 0 0 10 0 0 0 0 0 0 0 1 0
wet NAT 2003 100 0 0 2 0 0 0 0 0 0 0 0 0
wet NAT 2004 100 0 0 2 0 0 0 0 0 0 0 1 1
wet NAT 2005 100 0 0 0 0 0 0 0 0 0 0 0 0
wet NAT 2006 100 0 0 0 0 0 0 0 0 0 0 0 0
wet NAT 2007 100 0 0 23 1 0 0 0 0 0 0 2 0
wet NAT 2008 100 0 0 13 1 0 0 0 0 0 0 0 0
wet NAT 2009 100 0 0 0 0 0 0 0 0 0 0 1 0
wet NAT 2010 100 0 0 0 0 0 0 0 0 0 0 0 1
wet NAT 2011 400 0 0 14 8 0 0 0 0 0 0 0 0
wet NAT 2012 400 0 0 0 0 0 0 0 0 0 0 25 3
wet NAT 2013 400 0 0 0 0 0 0 0 0 0 0 2 0
