event_type scenario year n_sims january february march april may june july august september october november december
hot ALL 1982 50 0 0 0 0 0 1 2 0 0 0 0 0
hot ALL 1983 50 0 0 0 0 0 0 7 0 0 0 0 0
hot ALL 1984 50 0 0 0 0 0 0 5 0 0 0 0 0
hot ALL 1985 50 0 0 0 0 0 0 0 0 0 0 0 0
hot ALL 1986 50 0 0 0 0 0 0 4 0 0 0 0 0
hot ALL 1987 50 0 0 0 0 0 1 6 1 0 0 0 0
hot ALL 1988 50 0 0 0 0 0 0 4 0 0 0 0 0
hot ALL 1989 50 0 0 0 0 0 0 6 0 0 0 0 0
hot ALL 1990 50 0 0 0 0 0 0 4 0 0 0 0 0
hot ALL 1991 50 0 0 0 0 0 1 5 1 0 0 0 0
hot ALL 1992 50 0 0 0 0 0 1 3 0 0 0 0 0
hot ALL 1993 50 0 0 0 0 0 0 9 0 0 0 0 0
hot ALL 1994 50 0 0 0 0 0 0 13 1 0 0 0 0
hot ALL 1995 50 0 0 0 0 0 1 7 0 0 0 0 0
hot ALL 1996 50 0 0 0 0 0 0 2 0 0 0 0 0
hot ALL 1997 100 0 0 0 0 0 1 33 4 0 0 0 0
hot ALL 1998 100 0 0 0 0 0 4 35 1 0 0 0 0
hot ALL 1999 100 0 0 0 0 0 1 9 0 0 0 0 0
hot ALL 2000 100 0 0 0 0 0 4 13 0 0 0 0 0
hot ALL 2001 100 0 0 0 0 0 2 22 0 0 0 0 0
hot ALL 2002 100 0 0 0 0 0 4 15 2 0 0 0 0
hot ALL 2003 100 0 0 0 0 0 6 14 2 0 0 0 0
hot ALL 2004 100 0 0 0 0 0 2 25 1 0 0 0 0
hot ALL 2005 100 0 0 0 0 0 5 29 1 0 0 0 0
hot ALL 2006 100 0 0 0 0 0 4 14 0 0 0 0 0
hot ALL 2007 100 0 0 0 0 0 2 14 0 0 0 0 0
hot ALL 2008 100 0 0 0 0 0 2 12 0 0 0 0 0
hot ALL 2009 100 0 0 0 0 0 1 27 0 0 0 0 0
hot ALL 2010 100 0 0 0 0 0 1 9 0 0 0 0 0
hot ALL 2011 400 0 0 0 0 0 7 60 1 0 0 0 0
hot ALL 2012 400 0 0 0 0 0 6 49 1 0 0 0 0
hot ALL 2013 400 0 0 0 0 0 10 93 13 0 0 0 0
hot NAT 1982 50 0 0 0 0 0 3 4 0 0 0 0 0
hot NAT 1983 50 0 0 0 0 0 2 11 0 0 0 0 0
hot NAT 1984 50 0 0 0 0 0 1 1 1 0 0 0 0
hot NAT 1985 50 0 0 0 0 0 0 0 0 0 0 0 0
hot NAT 1986 50 0 0 0 0 0 0 1 0 0 0 0 0
hot NAT 1987 50 0 0 0 0 0 2 5 0 0 0 0 0
hot NAT 1988 50 0 0 0 0 0 1 2 0 0 0 0 0
hot NAT 1989 50 0 0 0 0 0 0 7 0 0 0 0 0
hot NAT 1990 50 0 0 0 0 0 0 10 0 0 0 0 0
hot NAT 1991 50 0 0 0 0 0 0 7 0 0 0 0 0
hot NAT 1992 50 0 0 0 0 0 2 1 0 0 0 0 0
hot NAT 1993 50 0 0 0 0 0 0 5 0 0 0 0 0
hot NAT 1994 50 0 0 0 0 0 0 8 0 0 0 0 0
hot NAT 1995 50 0 0 0 0 0 4 3 0 0 0 0 0
hot NAT 1996 50 0 0 0 0 0 1 4 0 0 0 0 0
hot NAT 1997 100 0 0 0 0 0 1 16 0 0 0 0 0
hot NAT 1998 100 0 0 0 0 0 2 12 0 0 0 0 0
hot NAT 1999 100 0 0 0 0 0 1 5 0 0 0 0 0
hot NAT 2000 100 0 0 0 0 0 1 5 1 0 0 0 0
hot NAT 2001 100 0 0 0 0 0 0 3 0 0 0 0 0
hot NAT 2002 100 0 0 0 0 0 2 4 1 0 0 0 0
hot NAT 2003 100 0 0 0 0 0 0 8 0 0 0 0 0
hot NAT 2004 100 0 0 0 0 0 0 9 0 0 0 0 0
hot NAT 2005 100 0 0 0 0 0 0 27 0 0 0 0 0
hot NAT 2006 100 0 0 0 0 0 2 8 0 0 0 0 0
hot NAT 2007 100 0 0 0 0 0 0 7 0 0 0 0 0
hot NAT 2008 100 0 0 0 0 0 1 10 0 0 0 0 0
hot NAT 2009 100 0 0 0 0 0 2 9 0 0 0 0 0
hot NAT 2010 100 0 0 0 0 0 0 7 0 0 0 0 0
hot NAT 2011 400 0 0 0 0 0 3 11 0 0 0 0 0
hot NAT 2012 400 0 0 0 0 0 1 14 0 0 0 0 0
hot NAT 2013 400 0 0 0 0 0 2 26 0 0 0 0 0
cold ALL 1982 50 2 0 0 0 0 0 0 0 0 0 0 0
cold ALL 1983 50 0 0 0 0 0 0 0 0 0 0 0 1
cold ALL 1984 50 2 0 0 0 0 0 0 0 0 0 0 1
cold ALL 1985 50 4 0 1 0 0 0 0 0 0 0 0 0
cold ALL 1986 50 2 1 0 0 0 0 0 0 0 0 0 0
cold ALL 1987 50 0 0 0 0 0 0 0 0 0 0 0 0
cold ALL 1988 50 2 1 0 0 0 0 0 0 0 0 0 3
cold ALL 1989 50 15 2 0 0 0 0 0 0 0 0 0 2
cold ALL 1990 50 3 2 0 0 0 0 0 0 0 0 0 3
cold ALL 1991 50 4 0 0 0 0 0 0 0 0 0 0 0
cold ALL 1992 50 1 0 0 0 0 0 0 0 0 0 0 1
cold ALL 1993 50 1 0 0 0 0 0 0 0 0 0 0 1
cold ALL 1994 50 2 0 0 0 0 0 0 0 0 0 0 0
cold ALL 1995 50 3 0 0 0 0 0 0 0 0 0 0 0
cold ALL 1996 50 2 3 0 0 0 0 0 0 0 0 0 1
cold ALL 1997 100 5 3 0 0 0 0 0 0 0 0 0 1
cold ALL 1998 100 1 0 0 0 0 0 0 0 0 0 0 2
cold ALL 1999 100 6 25 0 0 0 0 0 0 0 0 0 2
cold ALL 2000 100 13 6 0 0 0 0 0 0 0 0 0 1
cold ALL 2001 100 2 3 0 0 0 0 0 0 0 0 0 0
cold ALL 2002 100 7 2 0 0 0 0 0 0 0 0 0 0
cold ALL 2003 100 1 0 0 0 0 0 0 0 0 0 0 1
cold ALL 2004 100 2 1 0 0 0 0 0 0 0 0 0 0
cold ALL 2005 100 2 1 0 0 0 0 0 0 0 0 0 0
cold ALL 2006 100 0 6 0 0 0 0 0 0 0 0 0 0
cold ALL 2007 100 0 1 0 0 0 0 0 0 0 0 0 0
cold ALL 2008 100 12 7 0 0 0 0 0 0 0 0 0 3
cold ALL 2009 100 3 5 0 0 0 0 0 0 0 0 0 1
cold ALL 2010 100 1 1 0 0 0 0 0 0 0 0 0 1
cold ALL 2011 400 27 15 0 0 0 0 0 0 0 0 0 13
cold ALL 2012 400 47 33 0 0 0 0 0 0 0 0 0 1
cold ALL 2013 400 11 20 0 0 0 0 0 0 0 0 0 2
cold NAT 1982 50 6 6 0 0 0 0 0 0 0 0 0 2
cold NAT 1983 50 3 1 0 0 0 0 0 0 0 0 0 4
cold NAT 1984 50 5 5 0 0 0 0 0 0 0 0 0 8
cold NAT 1985 50 13 8 0 0 0 0 0 0 0 0 0 3
cold NAT 1986 50 5 3 0 0 0 0 0 0 0 0 0 5
cold NAT 1987 50 4 3 0 0 0 0 0 0 0 0 0 4
cold NAT 1988 50 9 6 0 0 0 0 0 0 0 0 1 9
cold NAT 1989 50 23 18 0 0 0 0 0 0 0 0 0 12
cold NAT 1990 50 11 10 0 0 0 0 0 0 0 0 0 4
cold NAT 1991 50 6 4 0 0 0 0 0 0 0 0 0 10
cold NAT 1992 50 6 7 0 0 0 0 0 0 0 0 0 14
cold NAT 1993 50 6 10 0 0 0 0 0 0 0 0 0 3
cold NAT 1994 50 11 9 0 0 0 0 0 0 0 0 0 6
cold NAT 1995 50 6 5 0 0 0 0 0 0 0 0 0 4
cold NAT 1996 50 5 4 0 0 0 0 0 0 0 0 1 6
cold NAT 1997 100 24 9 0 0 0 0 0 0 0 0 0 15
cold NAT 1998 100 4 2 0 0 0 0 0 0 0 0 0 11
cold NAT 1999 100 36 37 1 0 0 0 0 0 0 0 0 20
cold NAT 2000 100 33 34 1 0 0 0 0 0 0 0 0 19
cold NAT 2001 100 22 15 2 0 0 0 0 0 0 0 0 17
cold NAT 2002 100 23 11 1 0 0 0 0 0 0 0 0 12
cold NAT 2003 100 8 6 0 0 0 0 0 0 0 0 0 10
cold NAT 2004 100 26 16 2 0 0 0 0 0 0 0 0 16
cold NAT 2005 100 8 9 0 0 0 0 0 0 0 0 2 14
cold NAT 2006 100 18 28 4 0 0 0 0 0 0 0 1 12
cold NAT 2007 100 14 12 1 0 0 0 0 0 0 0 0 20
cold NAT 2008 100 41 43 1 0 0 0 0 0 0 0 0 20
cold NAT 2009 100 17 28 2 0 0 0 0 0 0 0 0 15
cold NAT 2010 100 17 13 2 0 0 0 0 0 0 0 1 17
cold NAT 2011 400 120 92 9 0 0 0 0 0 0 0 5 128
cold NAT 2012 400 180 159 6 0 0 0 0 0 0 0 7 97
cold NAT 2013 400 82 94 9 0 0 0 0 0 0 0 3 68
wet ALL 1982 50 0 0 0 0 0 0 0 1 1 0 0 0
wet ALL 1983 50 0 0 0 0 0 0 0 2 2 1 0 0
wet ALL 1984 50 0 0 0 0 0 0 0 1 4 0 0 0
wet ALL 1985 50 0 0 0 0 0 0 0 0 1 0 0 0
wet ALL 1986 50 0 0 0 0 0 0 0 2 2 0 0 0
wet ALL 1987 50 0 0 0 0 0 0 0 3 3 0 0 0
wet ALL 1988 50 0 0 0 0 0 0 0 3 2 0 0 0
wet ALL 1989 50 0 0 0 0 0 0 0 4 1 0 0 0
wet ALL 1990 50 0 0 0 0 0 0 0 0 2 1 0 0
wet ALL 1991 50 0 0 0 0 0 0 0 1 0 0 0 0
wet ALL 1992 50 0 0 0 0 0 0 0 0 1 0 1 0
wet ALL 1993 50 0 0 0 0 0 0 0 2 2 1 1 1
wet ALL 1994 50 0 0 0 0 0 0 0 2 7 1 0 0
wet ALL 1995 50 0 0 0 0 0 0 0 2 0 1 0 0
wet ALL 1996 50 0 0 0 0 0 0 0 7 0 0 0 0
wet ALL 1997 100 1 0 0 0 0 0 0 6 4 2 0 0
wet ALL 1998 100 0 0 0 0 0 0 0 3 3 0 1 0
wet ALL 1999 100 0 0 0 0 0 0 2 1 4 1 0 0
wet ALL 2000 100 0 0 0 0 0 0 3 5 1 1 0 0
wet ALL 2001 100 0 0 0 0 0 0 0 6 4 0 0 0
wet ALL 2002 100 0 0 0 0 0 0 1 3 1 4 0 0
wet ALL 2003 100 0 0 0 0 0 0 4 5 3 0 0 1
wet ALL 2004 100 0 0 0 0 0 0 1 6 5 3 0 0
wet ALL 2005 100 0 0 0 0 0 0 0 3 3 1 0 0
wet ALL 2006 100 0 0 0 0 0 0 1 4 0 4 0 0
wet ALL 2007 100 0 0 0 0 0 0 3 7 2 0 0 0
wet ALL 2008 100 0 0 0 0 0 0 0 5 1 1 0 0
wet ALL 2009 100 0 0 0 0 0 0 0 2 0 3 0 0
wet ALL 2010 100 0 0 0 0 0 0 2 5 3 1 0 0
wet ALL 2011 400 0 2 0 0 0 0 6 16 7 1 0 0
wet ALL 2012 400 0 0 0 0 0 0 1 25 13 2 1 0
wet ALL 2013 400 0 0 0 0 0 0 3 35 19 5 2 2
wet NAT 1982 50 0 0 0 0 0 0 0 5 0 0 0 0
wet NAT 1983 50 0 0 0 0 0 0 0 2 2 0 0 0
wet NAT 1984 50 0 0 0 0 0 0 0 5 4 0 0 0
wet NAT 1985 50 0 0 0 0 0 0 0 1 2 0 0 0
wet NAT 1986 50 0 0 0 0 0 0 0 0 0 1 0 0
wet NAT 1987 50 0 0 0 0 0 0 0 0 0 0 0 0
wet NAT 1988 50 0 0 0 0 0 0 0 1 1 0 0 0
wet NAT 1989 50 0 0 0 0 0 0 1 3 1 0 0 0
wet NAT 1990 50 0 0 0 0 0 0 1 1 2 0 0 0
wet NAT 1991 50 0 0 0 0 0 0 0 2 3 0 0 0
wet NAT 1992 50 0 0 0 0 0 0 0 2 1 0 0 0
wet NAT 1993 50 0 0 0 0 0 0 1 2 3 0 0 1
wet NAT 1994 50 0 0 0 0 0 0 1 0 5 0 0 0
wet NAT 1995 50 0 0 0 0 0 0 0 1 2 0 0 0
wet NAT 1996 50 0 0 0 0 0 0 0 1 0 0 0 0
wet NAT 1997 100 0 0 0 0 0 0 0 3 5 0 0 0
wet NAT 1998 100 0 0 0 0 0 0 2 2 1 1 0 0
wet NAT 1999 100 0 0 0 0 0 0 2 3 5 0 0 0
wet NAT 2000 100 0 0 0 0 0 0 0 6 2 0 0 0
wet NAT 2001 100 0 0 0 0 0 0 0 5 1 0 0 0
wet NAT 2002 100 0 0 0 0 0 0 3 5 1 0 0 0
wet NAT 2003 100 0 0 0 0 0 0 1 5 4 0 0 0
wet NAT 2004 100 0 0 0 0 0 0 2 4 3 0 0 0
wet NAT 2005 100 0 0 0 0 0 0 0 4 2 0 0 0
wet NAT 2006 100 0 0 0 0 0 0 1 2 2 0 0 0
wet NAT 2007 100 0 0 0 0 0 0 0 4 2 0 0 0
wet NAT 2008 100 0 0 0 0 0 0 1 1 1 0 0 0
wet NAT 2009 100 0 0 0 0 0 0 1 3 1 0 0 0
wet NAT 2010 100 0 0 0 0 0 0 1 2 3 0 0 0
wet NAT 2011 400 0 0 0 0 0 0 2 12 1 0 0 0
wet NAT 2012 400 0 0 0 0 0 0 1 9 9 0 0 0
wet NAT 2013 400 0 0 0 0 0 0 5 19 17 0 0 0
